<?xml version="1.0" encoding="UTF-8" standalone="no"?>
<!-- Created with Inkscape (http://www.inkscape.org/) -->

<svg
   xmlns:dc="http://purl.org/dc/elements/1.1/"
   xmlns:cc="http://creativecommons.org/ns#"
   xmlns:rdf="http://www.w3.org/1999/02/22-rdf-syntax-ns#"
   xmlns:svg="http://www.w3.org/2000/svg"
   xmlns="http://www.w3.org/2000/svg"
   xmlns:xlink="http://www.w3.org/1999/xlink"
   xmlns:sodipodi="http://sodipodi.sourceforge.net/DTD/sodipodi-0.dtd"
   xmlns:inkscape="http://www.inkscape.org/namespaces/inkscape"
   width="32"
   height="32"
   viewBox="0 0 8.4666665 8.4666669"
   version="1.1"
   id="svg2031"
   inkscape:version="0.92.2 (5c3e80d, 2017-08-06)"
   sodipodi:docname="restore.svg">
  <defs
     id="defs2025">
    <linearGradient
       inkscape:collect="always"
       id="linearGradient2740">
      <stop
         style="stop-color:#44fb44;stop-opacity:1"
         offset="0"
         id="stop2736" />
      <stop
         style="stop-color:#00d200;stop-opacity:1"
         offset="1"
         id="stop2738" />
    </linearGradient>
    <linearGradient
       inkscape:collect="always"
       xlink:href="#linearGradient8823"
       id="linearGradient8825"
       x1="0.55018914"
       y1="291.21808"
       x2="0.58049631"
       y2="295.06711"
       gradientUnits="userSpaceOnUse" />
    <linearGradient
       inkscape:collect="always"
       id="linearGradient8823">
      <stop
         style="stop-color:#0d0d0d;stop-opacity:1"
         offset="0"
         id="stop8819" />
      <stop
         style="stop-color:#e1e1e1;stop-opacity:0.29803923"
         offset="1"
         id="stop8821" />
    </linearGradient>
    <linearGradient
       inkscape:collect="always"
       xlink:href="#linearGradient8817"
       id="linearGradient7014"
       gradientUnits="userSpaceOnUse"
       gradientTransform="matrix(0.77119144,0,0,0.7711924,-0.8743162,66.729078)"
       x1="1.8657067"
       y1="291.1445"
       x2="1.8657067"
       y2="295.48477" />
    <linearGradient
       id="linearGradient8817"
       inkscape:collect="always">
      <stop
         id="stop8813"
         offset="0"
         style="stop-color:#05e705;stop-opacity:1" />
      <stop
         id="stop8815"
         offset="1"
         style="stop-color:#00ac00;stop-opacity:1" />
    </linearGradient>
    <linearGradient
       inkscape:collect="always"
       xlink:href="#linearGradient8823"
       id="linearGradient2720"
       gradientUnits="userSpaceOnUse"
       x1="0.55018914"
       y1="291.21808"
       x2="0.58049631"
       y2="295.06711" />
    <linearGradient
       inkscape:collect="always"
       xlink:href="#linearGradient8817"
       id="linearGradient2722"
       gradientUnits="userSpaceOnUse"
       gradientTransform="matrix(0.77119144,0,0,-0.7711924,-0.8743162,519.10148)"
       x1="1.8657067"
       y1="291.1445"
       x2="1.8657067"
       y2="295.48477" />
    <linearGradient
       inkscape:collect="always"
       xlink:href="#linearGradient8823"
       id="linearGradient2732"
       gradientUnits="userSpaceOnUse"
       x1="0.55018914"
       y1="291.21808"
       x2="0.58049631"
       y2="295.06711" />
    <linearGradient
       inkscape:collect="always"
       xlink:href="#linearGradient2740"
       id="linearGradient2734"
       gradientUnits="userSpaceOnUse"
       gradientTransform="matrix(0.77119144,0,0,0.7711924,-0.8743162,66.729078)"
       x1="1.8657067"
       y1="291.1445"
       x2="1.8657067"
       y2="295.48477" />
  </defs>
  <sodipodi:namedview
     id="base"
     pagecolor="#ffffff"
     bordercolor="#666666"
     borderopacity="1.0"
     inkscape:pageopacity="0.0"
     inkscape:pageshadow="2"
     inkscape:zoom="5.6"
     inkscape:cx="7.8615667"
     inkscape:cy="0.27033032"
     inkscape:document-units="px"
     inkscape:current-layer="layer1"
     showgrid="false"
     units="px"
     inkscape:pagecheckerboard="true"
     inkscape:showpageshadow="false"
     inkscape:window-width="1101"
     inkscape:window-height="710"
     inkscape:window-x="598"
     inkscape:window-y="210"
     inkscape:window-maximized="0" />
  <metadata
     id="metadata2028">
    <rdf:RDF>
      <cc:Work
         rdf:about="">
        <dc:format>image/svg+xml</dc:format>
        <dc:type
           rdf:resource="http://purl.org/dc/dcmitype/StillImage" />
        <dc:title />
      </cc:Work>
    </rdf:RDF>
  </metadata>
  <g
     inkscape:label="Layer 1"
     inkscape:groupmode="layer"
     id="layer1"
     transform="translate(0,-288.53332)">
    <g
       transform="translate(2.7696146,-1.3274958)"
       id="pressed-center">
      <rect
         y="289.55908"
         x="-2.7849381"
         height="6.7123852"
         width="6.7123852"
         id="rect6970"
         style="opacity:0.65799997;fill:none;fill-opacity:1;fill-rule:nonzero;stroke:none;stroke-width:0.16678162;stroke-linecap:square;stroke-linejoin:round;stroke-miterlimit:4;stroke-dasharray:none;stroke-dashoffset:0;stroke-opacity:1" />
      <circle
         style="opacity:1;fill:url(#linearGradient8825);fill-opacity:1;fill-rule:nonzero;stroke:none;stroke-width:0.56217504;stroke-linecap:square;stroke-linejoin:round;stroke-miterlimit:4;stroke-dasharray:none;stroke-dashoffset:0;stroke-opacity:1"
         id="circle7040"
         cx="0.57125443"
         cy="292.91528"
         r="2.2334909" />
      <path
         inkscape:connector-curvature="0"
         id="path7012"
         d="m 0.57125683,291.23686 a 1.6784201,1.6784221 0 0 1 1.67841917,1.67843 1.6784201,1.6784221 0 0 1 -1.67841917,1.67841 1.6784201,1.6784221 0 0 1 -1.67842403,-1.67841 1.6784201,1.6784221 0 0 1 1.67842403,-1.67843 z"
         style="opacity:1;fill:url(#linearGradient7014);fill-opacity:1;fill-rule:nonzero;stroke:none;stroke-width:1.08343339;stroke-linecap:square;stroke-linejoin:round;stroke-miterlimit:4;stroke-dasharray:none;stroke-dashoffset:0;stroke-opacity:0.76712329" />
    </g>
    <g
       id="active-center"
       transform="translate(2.8698407,9.2296506)">
      <rect
         style="opacity:0.65799997;fill:none;fill-opacity:1;fill-rule:nonzero;stroke:none;stroke-width:0.16678162;stroke-linecap:square;stroke-linejoin:round;stroke-miterlimit:4;stroke-dasharray:none;stroke-dashoffset:0;stroke-opacity:1"
         id="rect2712"
         width="6.7123852"
         height="6.7123852"
         x="-2.7849381"
         y="289.55908" />
      <circle
         r="2.2334909"
         cy="292.91528"
         cx="0.57125443"
         id="circle2714"
         style="opacity:1;fill:url(#linearGradient2720);fill-opacity:1;fill-rule:nonzero;stroke:none;stroke-width:0.56217504;stroke-linecap:square;stroke-linejoin:round;stroke-miterlimit:4;stroke-dasharray:none;stroke-dashoffset:0;stroke-opacity:1" />
      <path
         style="opacity:1;fill:url(#linearGradient2722);fill-opacity:1;fill-rule:nonzero;stroke:none;stroke-width:1.08343339;stroke-linecap:square;stroke-linejoin:round;stroke-miterlimit:4;stroke-dasharray:none;stroke-dashoffset:0;stroke-opacity:0.76712329"
         d="m 0.57125683,294.5937 a 1.6784201,1.6784221 0 0 0 1.67841917,-1.67843 1.6784201,1.6784221 0 0 0 -1.67841917,-1.67841 1.6784201,1.6784221 0 0 0 -1.67842403,1.67841 1.6784201,1.6784221 0 0 0 1.67842403,1.67843 z"
         id="path2742"
         inkscape:connector-curvature="0" />
    </g>
    <g
       id="hover-center"
       transform="translate(16.500587,-0.72613936)">
      <rect
         style="opacity:0.65799997;fill:none;fill-opacity:1;fill-rule:nonzero;stroke:none;stroke-width:0.16678162;stroke-linecap:square;stroke-linejoin:round;stroke-miterlimit:4;stroke-dasharray:none;stroke-dashoffset:0;stroke-opacity:1"
         id="rect2724"
         width="6.7123852"
         height="6.7123852"
         x="-2.7849381"
         y="289.55908" />
      <circle
         r="2.2334909"
         cy="292.91528"
         cx="0.57125443"
         id="circle2726"
         style="opacity:1;fill:url(#linearGradient2732);fill-opacity:1;fill-rule:nonzero;stroke:none;stroke-width:0.56217504;stroke-linecap:square;stroke-linejoin:round;stroke-miterlimit:4;stroke-dasharray:none;stroke-dashoffset:0;stroke-opacity:1" />
      <path
         style="opacity:1;fill:url(#linearGradient2734);fill-opacity:1;fill-rule:nonzero;stroke:none;stroke-width:1.08343339;stroke-linecap:square;stroke-linejoin:round;stroke-miterlimit:4;stroke-dasharray:none;stroke-dashoffset:0;stroke-opacity:0.76712329"
         d="m 0.57125683,291.23686 a 1.6784201,1.6784221 0 0 1 1.67841917,1.67843 1.6784201,1.6784221 0 0 1 -1.67841917,1.67841 1.6784201,1.6784221 0 0 1 -1.67842403,-1.67841 1.6784201,1.6784221 0 0 1 1.67842403,-1.67843 z"
         id="path2728"
         inkscape:connector-curvature="0" />
    </g>
  </g>
</svg>
