<?xml version="1.0" encoding="UTF-8" standalone="no"?>
<!-- Created with Inkscape (http://www.inkscape.org/) -->

<svg
   xmlns:dc="http://purl.org/dc/elements/1.1/"
   xmlns:cc="http://creativecommons.org/ns#"
   xmlns:rdf="http://www.w3.org/1999/02/22-rdf-syntax-ns#"
   xmlns:svg="http://www.w3.org/2000/svg"
   xmlns="http://www.w3.org/2000/svg"
   xmlns:sodipodi="http://sodipodi.sourceforge.net/DTD/sodipodi-0.dtd"
   xmlns:inkscape="http://www.inkscape.org/namespaces/inkscape"
   width="793.70081"
   height="1122.5197"
   viewBox="0 0 210 297"
   version="1.1"
   id="svg8"
   inkscape:version="0.92.2 (5c3e80d, 2017-08-06)"
   sodipodi:docname="liquid.svg"
   enable-background="new">
  <defs
     id="defs2">
    <filter
       style="color-interpolation-filters:sRGB"
       x="-0.25"
       width="1.5"
       y="-0.25"
       height="1.5"
       inkscape:menu="Non-realistic 3D Shaders"
       inkscape:menu-tooltip="Satiny glass effect"
       inkscape:label="Frosted Glass"
       id="filter9202">
      <feGaussianBlur
         in="SourceGraphic"
         result="result8"
         stdDeviation="5"
         id="feGaussianBlur9182" />
      <feComposite
         result="result18"
         operator="xor"
         in2="result8"
         in="SourceGraphic"
         id="feComposite9184" />
      <feComposite
         in2="result18"
         result="result16"
         operator="arithmetic"
         k2="0.5"
         k1="1"
         in="result8"
         id="feComposite9186" />
      <feComposite
         in="result16"
         operator="atop"
         result="result6"
         in2="result8"
         id="feComposite9188" />
      <feOffset
         in="result6"
         result="result17"
         id="feOffset9190" />
      <feDisplacementMap
         result="result4"
         scale="100"
         yChannelSelector="A"
         xChannelSelector="A"
         in="result17"
         in2="result16"
         id="feDisplacementMap9192" />
      <feComposite
         k3="1"
         in="result17"
         operator="arithmetic"
         result="result2"
         in2="result4"
         id="feComposite9194" />
      <feComposite
         operator="out"
         in="result2"
         result="fbSourceGraphic"
         in2="result17"
         id="feComposite9196" />
      <feComposite
         result="result14"
         operator="over"
         in2="fbSourceGraphic"
         in="fbSourceGraphic"
         id="feComposite9198" />
      <feComposite
         in="result14"
         operator="in"
         in2="SourceGraphic"
         result="result15"
         id="feComposite9200" />
    </filter>
    <filter
       style="color-interpolation-filters:sRGB"
       x="-0.25"
       width="1.5"
       y="-0.25"
       height="1.5"
       inkscape:menu="Non-realistic 3D Shaders"
       inkscape:menu-tooltip="Unrealistic reflections with sharp edges"
       inkscape:label="Sharp Deco"
       id="filter9226">
      <feGaussianBlur
         result="result8"
         stdDeviation="1.6695850622406638"
         in="SourceGraphic"
         id="feGaussianBlur9206" />
      <feComposite
         in="SourceGraphic"
         result="result19"
         in2="result8"
         operator="out"
         id="feComposite9208"
         stdDeviation="1.6699999999999999" />
      <feComposite
         k2="1"
         operator="arithmetic"
         result="result17"
         in2="result8"
         id="feComposite9210" />
      <feComposite
         in2="result19"
         in="result17"
         operator="atop"
         result="result6"
         id="feComposite9212" />
      <feOffset
         result="result18"
         id="feOffset9214" />
      <feDisplacementMap
         in2="result6"
         result="result4"
         scale="100"
         yChannelSelector="A"
         xChannelSelector="A"
         in="result18"
         id="feDisplacementMap9216" />
      <feComposite
         in2="result18"
         in="result4"
         operator="arithmetic"
         result="result2"
         k3="1"
         k2="1"
         id="feComposite9218" />
      <feComposite
         in2="result4"
         operator="over"
         in="result2"
         result="fbSourceGraphic"
         id="feComposite9220" />
      <feComposite
         in2="result18"
         operator="atop"
         result="result15"
         id="feComposite9222" />
      <feComposite
         result="result16"
         in2="SourceGraphic"
         operator="in"
         in="result15"
         id="feComposite9224" />
    </filter>
    <filter
       style="color-interpolation-filters:sRGB"
       x="-0.25"
       width="1.5"
       y="-0.25"
       height="1.5"
       inkscape:menu="Non-realistic 3D Shaders"
       inkscape:menu-tooltip="Satiny glass effect"
       inkscape:label="Frosted Glass"
       id="filter1715">
      <feGaussianBlur
         in="SourceGraphic"
         result="result8"
         stdDeviation="5"
         id="feGaussianBlur1695" />
      <feComposite
         result="result18"
         operator="xor"
         in2="result8"
         in="SourceGraphic"
         id="feComposite1697" />
      <feComposite
         in2="result18"
         result="result16"
         operator="arithmetic"
         k2="0.5"
         k1="1"
         in="result8"
         id="feComposite1699" />
      <feComposite
         in="result16"
         operator="atop"
         result="result6"
         in2="result8"
         id="feComposite1701" />
      <feOffset
         in="result6"
         result="result17"
         id="feOffset1703" />
      <feDisplacementMap
         result="result4"
         scale="100"
         yChannelSelector="A"
         xChannelSelector="A"
         in="result17"
         in2="result16"
         id="feDisplacementMap1705" />
      <feComposite
         k3="1"
         in="result17"
         operator="arithmetic"
         result="result2"
         in2="result4"
         id="feComposite1707" />
      <feComposite
         operator="out"
         in="result2"
         result="fbSourceGraphic"
         in2="result17"
         id="feComposite1709" />
      <feComposite
         result="result14"
         operator="over"
         in2="fbSourceGraphic"
         in="fbSourceGraphic"
         id="feComposite1711" />
      <feComposite
         in="result14"
         operator="in"
         in2="SourceGraphic"
         result="result15"
         id="feComposite1713" />
    </filter>
    <filter
       style="color-interpolation-filters:sRGB"
       x="-0.25"
       width="1.5"
       y="-0.25"
       height="1.5"
       inkscape:menu="Non-realistic 3D Shaders"
       inkscape:menu-tooltip="Satiny glass effect"
       inkscape:label="Frosted Glass"
       id="filter1909">
      <feGaussianBlur
         in="SourceGraphic"
         result="result8"
         stdDeviation="0.70999999999999996"
         id="feGaussianBlur1889" />
      <feComposite
         result="result18"
         operator="xor"
         in2="result8"
         in="SourceGraphic"
         id="feComposite1891" />
      <feComposite
         in2="result18"
         result="result16"
         operator="arithmetic"
         k2="0.5"
         k1="1"
         in="result8"
         id="feComposite1893" />
      <feComposite
         in="result16"
         operator="atop"
         result="result6"
         in2="result8"
         id="feComposite1895" />
      <feOffset
         in="result6"
         result="result17"
         id="feOffset1897" />
      <feDisplacementMap
         result="result4"
         scale="100"
         yChannelSelector="A"
         xChannelSelector="A"
         in="result17"
         in2="result16"
         id="feDisplacementMap1899" />
      <feComposite
         k3="1"
         in="result17"
         operator="arithmetic"
         result="result2"
         in2="result4"
         id="feComposite1901" />
      <feComposite
         operator="out"
         in="result2"
         result="fbSourceGraphic"
         in2="result17"
         id="feComposite1903" />
      <feComposite
         result="result14"
         operator="over"
         in2="fbSourceGraphic"
         in="fbSourceGraphic"
         id="feComposite1905" />
      <feComposite
         in="result14"
         operator="in"
         in2="SourceGraphic"
         result="result15"
         id="feComposite1907" />
    </filter>
  </defs>
  <sodipodi:namedview
     id="base"
     pagecolor="#ffffff"
     bordercolor="#666666"
     borderopacity="1.0"
     inkscape:pageopacity="0.0"
     inkscape:pageshadow="2"
     inkscape:zoom="0.70710678"
     inkscape:cx="176.64565"
     inkscape:cy="823.10374"
     inkscape:document-units="px"
     inkscape:current-layer="layer1"
     showgrid="false"
     units="px"
     showborder="false"
     inkscape:snap-global="false"
     inkscape:window-width="1605"
     inkscape:window-height="1004"
     inkscape:window-x="228"
     inkscape:window-y="95"
     inkscape:window-maximized="0" />
  <metadata
     id="metadata5">
    <rdf:RDF>
      <cc:Work
         rdf:about="">
        <dc:format>image/svg+xml</dc:format>
        <dc:type
           rdf:resource="http://purl.org/dc/dcmitype/StillImage" />
        <dc:title />
      </cc:Work>
    </rdf:RDF>
  </metadata>
  <g
     inkscape:label="Layer 1"
     inkscape:groupmode="layer"
     id="layer1">
    <path
       style="color:#000000;font-style:normal;font-variant:normal;font-weight:normal;font-stretch:normal;font-size:52.19702911px;line-height:20.38946342px;font-family:Bungasai;-inkscape-font-specification:'Bungasai, Normal';font-variant-ligatures:normal;font-variant-position:normal;font-variant-caps:normal;font-variant-numeric:normal;font-variant-alternates:normal;font-feature-settings:normal;text-indent:0;text-align:start;text-decoration:none;text-decoration-line:none;text-decoration-style:solid;text-decoration-color:#000000;letter-spacing:0px;word-spacing:0px;text-transform:none;writing-mode:lr-tb;direction:ltr;text-orientation:mixed;dominant-baseline:auto;baseline-shift:baseline;text-anchor:start;white-space:normal;shape-padding:0;clip-rule:nonzero;display:inline;overflow:visible;visibility:visible;opacity:1;isolation:auto;mix-blend-mode:normal;color-interpolation:sRGB;color-interpolation-filters:linearRGB;solid-color:#000000;solid-opacity:1;vector-effect:none;fill:#afdde9;fill-opacity:1;fill-rule:nonzero;stroke:none;stroke-width:3.17499995;stroke-linecap:butt;stroke-linejoin:miter;stroke-miterlimit:4;stroke-dasharray:none;stroke-dashoffset:0;stroke-opacity:1;color-rendering:auto;image-rendering:auto;shape-rendering:auto;text-rendering:auto;enable-background:accumulate"
       d="m -0.30394837,112.49218 -1.58956603,0.0139 0.0036,0.26562 c -0.429189,0.083 -0.855753,0.0812 -1.285192,0.22428 -1.090121,0.36336 -2.089272,0.88069 -2.966744,1.54925 l -1.044898,0.79685 1.35754,2.71457 0.783413,-0.18345 c 3.23e-4,0.0151 0.0016,0.005 0.0016,0.0212 v 0.0625 l 0.0041,0.0605 c 0.02835,0.36859 0.02963,0.75924 0,1.17409 -0.0318,0.44511 -0.07925,0.88993 -0.142627,1.33584 -0.05977,0.38774 -0.132191,0.68906 -0.197405,0.8847 l -0.0155,0.0491 -6.0156536,22.80636 c -0.231984,0.85377 -0.3873,1.72672 -0.464571,2.61534 -0.07751,0.89133 -0.07751,1.78655 0,2.67788 l 0.0036,0.0372 0.0041,0.0388 c 0.253947,1.86228 1.132022,3.52291 2.5331786,4.70514 1.500997,1.26647 3.554232,1.79333 5.991881,1.834 1.319268,0.0385 2.57666603,-0.0969 3.75429203,-0.42168 1.16847697,-0.32233 2.22468797,-0.92259 3.16001397,-1.69912 1.637734,1.53393 3.981302,2.22622 6.8771004,2.22622 1.307624,0 2.548472,-0.15373 3.710884,-0.47439 1.017297,-0.28062 1.906046,-0.85234 2.75177,-1.48053 0.323459,0.37009 0.575173,0.80405 0.952913,1.12086 l 0.01964,0.0176 0.02377,0.0176 c 1.391836,1.08738 3.111664,1.64073 4.943367,1.64073 1.394127,0 2.70984,-0.29103 3.923791,-0.81442 l -1.543058,5.75985 v 0.002 c -0.313453,1.17544 -0.470772,2.37625 -0.470772,3.59151 v 0.0258 0.0253 c 0.04006,1.28171 0.284708,2.4914 0.751892,3.59564 0.488299,1.15418 1.286903,2.13954 2.308903,2.85719 1.134076,0.83247 2.5583,1.19166 4.11086,1.19166 h 0.03359 l 0.03307,-0.002 c 1.018741,-0.0425 2.056739,-0.27686 3.111438,-0.66405 1.133384,-0.36846 2.156271,-0.91084 3.017387,-1.64279 l 0.906405,-0.76946 -1.195276,-2.68924 -0.841809,0.14831 c -0.01328,-0.0883 -0.0263,-0.0981 -0.03514,-0.21291 l -0.0021,-0.006 v -0.006 c -0.02691,-0.32294 -0.0278,-0.69413 0.0021,-1.11156 0.03124,-0.43734 0.07884,-0.87451 0.14056,-1.31258 0.08814,-0.38276 0.16353,-0.71816 0.226343,-0.99994 l 0.0041,-0.0114 c 1.042274,-3.89108 2.082668,-7.74687 3.124873,-11.56829 l 0.0021,-0.002 v -0.002 c 0.03644,-0.13482 0.0726,-0.27131 0.109038,-0.40618 0.185617,0.46903 0.228729,1.01721 0.500227,1.4335 l 0.0098,0.0134 0.0078,0.014 c 0.661766,0.97059 1.548058,1.76278 2.591573,2.32803 1.023481,0.55437 2.156837,0.89082 3.351734,1.01544 1.011841,0.11977 2.040872,0.0984 3.074231,-0.0605 l 0.02325,-0.002 0.02377,-0.006 c 1.076085,-0.19926 2.105903,-0.54188 3.072163,-1.02371 1.01934,-0.49095 1.956757,-1.14513 2.796729,-1.9451 0.09152,-0.0872 0.143949,-0.21454 0.232544,-0.30489 0.440643,0.74504 0.969017,1.43207 1.689302,1.92599 l 0.01395,0.01 0.01344,0.008 c 1.594954,1.04812 3.643065,1.46089 6.092136,1.46089 1.307603,0 2.54831,-0.15418 3.710884,-0.4749 1.116751,-0.30807 2.113164,-0.89996 3.019454,-1.62471 1.617488,1.27716 3.747489,1.94355 6.409946,1.94355 1.307602,-1e-5 2.548461,-0.15425 3.710884,-0.47491 1.228513,-0.33891 2.352744,-0.94987 3.320727,-1.78904 0.232307,-0.19444 0.403466,-0.47313 0.619083,-0.69143 0.716785,0.69613 1.498036,1.31287 2.400371,1.75184 l 0.0077,0.004 0.0078,0.002 c 1.504225,0.71253 3.081063,1.08586 4.673616,1.08985 1.777476,0.0384 3.493291,-0.35524 5.04517,-1.17202 0.778338,-0.40965 1.44802,-0.96686 2.032953,-1.6092 0.430141,0.48495 0.867788,0.96778 1.42782,1.33015 l 0.045,0.0289 0.047,0.0258 c 0.71799,0.39888 1.48798,0.73335 2.30477,1.00562 l 0.031,0.01 0.0331,0.0103 c 0.86869,0.24819 1.77739,0.36842 2.70526,0.37104 1.31397,0.037 2.56508,-0.0965 3.73827,-0.42013 1.22753,-0.33863 2.35449,-0.94642 3.32228,-1.7849 1.00575,-0.84141 1.84934,-1.92242 2.54868,-3.20136 0.74533,-1.29914 1.35494,-2.85218 1.86552,-4.67568 l 0.47439,-1.69137 -4.33772,-0.75396 -0.39274,1.37304 c -0.105,0.36749 -0.29859,0.87169 -0.58601,1.47847 -0.26501,0.55948 -0.58821,1.0884 -0.97462,1.5937 l -0.004,0.006 -0.006,0.006 c -0.29748,0.39665 -0.62614,0.69112 -0.99373,0.92811 -0.20208,0.11113 -0.28653,0.13196 -0.53951,0.0625 -0.13006,-0.0375 -0.12689,-0.0548 -0.14211,-0.0801 -0.0861,-0.1999 -0.15235,-0.39296 -0.16846,-0.59996 -5e-5,-6.2e-4 5e-5,-0.001 0,-0.002 -0.0251,-0.36033 -0.0102,-0.71909 0.0393,-1.08159 0.0932,-0.42918 0.18461,-0.81919 0.27337,-1.14463 l 0.002,-0.002 6.00376,-22.2405 v -0.002 c 0.31459,-1.1797 0.47077,-2.39893 0.47077,-3.64474 0,-1.29192 -0.2258,-2.51926 -0.69711,-3.63699 -0.48872,-1.19382 -1.30421,-2.21713 -2.35748,-2.96829 -1.12639,-0.82915 -2.53759,-1.19373 -4.06435,-1.19373 h -4.10776 l 0.70745,0.64286 c -0.99518,0.35054 -1.9264,0.7922 -2.74247,1.37511 l -1.10536,0.78703 1.37098,2.73988 0.78341,-0.17363 c 0.004,0.0453 0.008,0.0196 0.008,0.078 v 0.0605 l 0.006,0.0605 c 0.0284,0.3686 0.0276,0.76131 -0.002,1.17615 -0.0319,0.447 -0.0779,0.87404 -0.14056,1.28106 -0.0598,0.38888 -0.13358,0.69065 -0.19895,0.88677 l -0.014,0.045 -2.15025,8.01759 c -4.03616,-0.87578 -7.783226,-0.71458 -10.999853,0.82011 -3.091248,1.44429 -5.40757,4.05405 -6.969082,7.49257 0.163647,-0.80587 0.397875,-1.64971 0.369485,-2.36368 -0.04107,-1.06768 -0.24489,-2.03781 -0.71882,-2.88872 -0.409474,-0.7659 -1.036778,-1.39382 -1.781286,-1.82986 1.472409,-0.17783 2.864445,-0.7178 3.91604,-1.7694 1.248441,-1.24844 1.925981,-2.93676 1.925981,-4.72478 0,-0.88921 -0.191908,-1.75946 -0.557072,-2.55488 -0.312735,-0.78347 -0.765458,-1.49746 -1.351338,-2.08979 -0.599385,-0.63924 -1.336517,-1.13556 -2.152325,-1.45883 -0.81597,-0.35679 -1.695265,-0.54674 -2.590022,-0.54674 -0.900205,0 -1.786951,0.18976 -2.607074,0.55088 -0.785223,0.32691 -1.501757,0.81188 -2.117186,1.4273 -0.596259,0.59626 -1.073824,1.30763 -1.424202,2.09599 l -0.0098,0.0196 -0.0078,0.0212 c -0.327024,0.79419 -0.484209,1.65411 -0.484209,2.53524 0,0.88113 0.157173,1.74679 0.47284,2.5585 l 0.01343,0.0351 0.0155,0.0351 c 0.350374,0.78834 0.827935,1.49973 1.424202,2.096 l 0.02119,0.0191 0.0217,0.0217 c 0.231862,0.21531 0.523645,0.34034 0.777213,0.52555 -0.609608,0.0233 -1.223973,0.0689 -1.851566,0.20102 l -0.0041,0.002 h -0.0036 c -1.511296,0.32676 -2.899706,0.97884 -4.095874,1.92753 l -0.810287,0.64286 c -0.145859,-0.27127 -0.255744,-0.56476 -0.451135,-0.80461 -0.688907,-0.87803 -1.659976,-1.50478 -2.748153,-1.82831 -0.998912,-0.3296 -2.092469,-0.50568 -3.277319,-0.54518 -0.698128,-0.0376 -1.409542,-0.0154 -2.131136,0.0589 -0.698186,0.0383 -1.435655,0.10795 -2.220536,0.21497 l -1.066602,0.14418 -0.675411,2.70526 0.574125,0.6289 c 0.537198,0.58835 0.645625,0.96449 0.63097,1.3162 -0.02445,0.55946 -0.110194,0.97191 -0.199472,1.36168 l -0.101286,0.34571 c -0.175648,0.59721 -0.404466,1.38179 -0.683679,2.35903 l -0.0078,0.0253 -0.0062,0.0258 c -0.239305,0.95722 -0.495917,1.91528 -0.769462,2.87269 l -0.0021,0.0103 -0.0016,0.01 c -0.312474,1.14646 -0.643275,2.34379 -0.990647,3.59433 l -0.0036,0.0103 -0.0021,0.01 c -0.326728,1.24157 -0.697099,2.23556 -1.074353,2.96106 l -0.01137,0.0233 -0.0098,0.0217 c -0.369248,0.76926 -0.737134,1.33729 -1.05885,1.71255 -0.307766,0.32298 -0.544916,0.45587 -0.638721,0.48473 -0.225164,0.0693 -0.312397,0.0542 -0.368969,0.0388 l -0.0078,-0.002 -0.0062,-0.002 c -0.138309,-0.0364 -0.242435,-0.11326 -0.431499,-0.52348 -0.17424,-0.48431 -0.210431,-1.01002 -0.0078,-1.74615 2.27e-4,-8.2e-4 -2.27e-4,-0.001 0,-0.002 l 2.087728,-7.41402 0.0041,-0.01 c 0.316162,-1.18561 0.450016,-2.41436 0.413928,-3.66438 -0.0022,-1.28502 -0.224048,-2.50526 -0.69298,-3.61735 -0.488836,-1.1941 -1.304122,-2.21706 -2.357479,-2.96829 -1.126126,-0.82895 -2.538093,-1.1958 -4.064868,-1.1958 -1.060413,0 -2.137218,0.19117 -3.216342,0.55087 -1.073879,0.35798 -2.055941,0.84776 -2.925919,1.46916 l -0.505912,0.35916 c -0.638766,-0.50557 -1.213052,-1.0845 -1.996261,-1.41387 -1.200913,-0.51923 -2.518888,-0.84966 -3.933609,-1.00407 -1.836554,-0.22835 -3.762503,-0.16856 -5.769157,0.16588 -2.015509,0.33592 -3.948338,0.9373 -5.781559,1.79679 -1.817824,0.8338 -3.475435,1.93708 -4.95112,3.29902 -0.569381,0.52443 -1.028369,1.12468 -1.484146,1.72651 0.02073,-0.29711 0.157552,-0.65715 0.146243,-0.94154 -0.04107,-1.06766 -0.244877,-2.0378 -0.718817,-2.88872 -0.409482,-0.76592 -1.036788,-1.39382 -1.781289,-1.82986 1.472407,-0.17782 2.864454,-0.71781 3.91604,-1.7694 1.248439,-1.24843 1.925981,-2.93676 1.925981,-4.72478 0,-0.88921 -0.191396,-1.75946 -0.556553,-2.55488 -0.312738,-0.78347 -0.765977,-1.49745 -1.351857,-2.08979 -0.598982,-0.63882 -1.336265,-1.13546 -2.152322,-1.45883 -0.815776,-0.35642 -1.695384,-0.54674 -2.589506,-0.54674 -0.900848,0 -1.78698,0.18926 -2.607593,0.55087 -0.785503,0.32705 -1.5021484,0.81227 -2.1171854,1.42731 -0.596263,0.59625 -1.073317,1.30764 -1.423684,2.09599 l -0.0078,0.0196 -0.0098,0.0212 c -0.327019,0.79419 -0.484724,1.65411 -0.484724,2.53524 0,0.88113 0.157178,1.7468 0.472839,2.55851 l 0.01344,0.0351 0.01602,0.0351 c 0.350367,0.78834 0.827432,1.49974 1.423684,2.096 l 0.02119,0.0196 0.0217,0.0212 c 0.231558,0.21503 0.523947,0.34044 0.777214,0.52555 -0.609611,0.0233 -1.223971,0.0689 -1.851565,0.20103 l -0.0036,0.002 h -0.0041 c -1.184132,0.25603 -2.259888,0.76891 -3.259749,1.41025 L 6.7411186,123.89 c 0.315304,-1.18239 0.450667,-2.39523 0.413927,-3.61735 -0.0031,-1.28194 -0.223441,-2.50129 -0.69143,-3.61115 -0.48872,-1.19382 -1.304195,-2.21766 -2.357478,-2.96881 -1.126124,-0.82895 -2.539645,-1.19373 -4.06641797,-1.19373 -0.11099,-0.003 -0.223163,-0.007 -0.341582,-0.006 z m 4.26795697,21.82657 0.456819,0.80047 0.400492,-0.11885 c -0.02363,0.23536 0.0042,0.19333 -0.08992,0.56999 -0.234992,0.93997 -0.539591,2.0292 -0.916223,3.26181 l -0.0036,0.014 -0.0062,0.0134 c -0.347432,1.21601 -0.711165,2.48424 -1.093472,3.80494 -0.39343,1.35912 -0.699675,2.60438 -0.919843,3.74189 l -0.0041,0.0119 -0.0021,0.0134 c -0.146524,0.82681 -0.143888,1.56578 -0.152448,2.31252 -0.126251,0.10305 -0.250317,0.22757 -0.378788,0.30902 -0.164285,0.0985 -0.20307,0.11384 -0.46870397,0.0408 -0.142425,-0.0411 -0.139176,-0.055 -0.156062,-0.0858 -0.07986,-0.16382 -0.137863,-0.32746 -0.154514,-0.54106 -5.5e-5,-7.1e-4 5.6e-5,-0.001 0,-0.002 -0.02508,-0.36031 -0.01024,-0.71961 0.03928,-1.08211 0.09307,-0.42829 0.186338,-0.81795 0.275434,-1.14463 v -0.004 z m 66.5762974,0.21808 c 1.69e-4,8.7e-4 3.46e-4,0.002 5.16e-4,0.003 l 0.63407,1.10743 0.399976,-0.11731 c -0.02363,0.23536 0.0047,0.19385 -0.0894,0.57051 -0.234992,0.93997 -0.541657,2.02868 -0.91829,3.2613 l -0.0036,0.0139 -0.0041,0.0134 c -0.347432,1.21601 -0.711163,2.48424 -1.093473,3.80493 -0.39343,1.35913 -0.701743,2.60489 -0.921908,3.74241 l -0.0021,0.0114 -0.0021,0.0139 c -0.186887,1.05458 -0.09869,1.9531 -0.05684,2.8789 -0.101189,0.0144 -0.204934,0.0814 -0.343648,0.0429 -0.324218,-0.0901 -0.400747,-0.16645 -0.499711,-0.3204 -0.02193,-0.0341 -0.09248,-0.11482 0.04082,-0.60358 v -0.004 l 0.0021,-0.004 c 0.417487,-1.56558 0.817814,-3.11469 1.20096,-4.64674 l 0.0062,-0.0233 c 0.412874,-1.54763 0.841717,-3.09498 1.28881,-4.64261 l 0.0021,-0.006 0.0021,-0.008 c 0.451611,-1.61827 0.654293,-3.04308 0.519348,-4.34754 -0.02616,-0.25977 -0.112538,-0.48917 -0.161231,-0.73794 l -10e-4,-0.002 z m 29.562534,0.43925 -5.2e-4,5.2e-4 -2.62309,9.81283 v 0.002 c -0.166851,0.53373 -0.348144,1.11099 -0.546737,1.73994 -0.175049,0.52416 -0.388229,0.98846 -0.636654,1.4025 -0.222237,0.3704 -0.441066,0.61028 -0.642855,0.78497 -0.399283,-0.11319 -0.566563,-0.25165 -0.732253,-0.5116 -0.219784,-0.43571 -0.378093,-0.95237 -0.431499,-1.61695 -6.1e-5,-7.6e-4 5.8e-5,-0.001 0,-0.002 -0.05777,-0.75738 -0.01561,-1.58102 0.138491,-2.47479 v -0.004 l 0.0021,-0.004 c 0.15847,-0.95084 0.393973,-1.84481 0.705382,-2.68562 l 0.0057,-0.0155 0.0057,-0.016 c 0.285594,-0.82503 0.654294,-1.6765 1.109493,-2.55437 l 0.0062,-0.0119 0.0057,-0.01 c 0.435579,-0.87116 0.920478,-1.61062 1.451076,-2.23035 l 0.0041,-0.002 c 3.25e-4,-3.8e-4 -3.26e-4,-0.002 0,-0.002 0.553743,-0.64024 1.139134,-1.1234 1.767334,-1.47847 l 0.0098,-0.004 0.0098,-0.006 c 0.126322,-0.0737 0.266477,-0.0578 0.392742,-0.11317 z m -68.168446,0.90123 c -0.01857,0.57245 -0.09358,1.4358 -0.489893,2.90784 v 0.002 l -2.789493,10.39059 c -0.07875,0.002 -0.197112,0.0709 -0.273369,0.0548 -0.491516,-0.12784 -0.742742,-0.30473 -0.974617,-0.64027 -0.315047,-0.49119 -0.523695,-1.0355 -0.630969,-1.68207 -0.08193,-0.73993 -0.07035,-1.5603 0.04909,-2.46858 0.159971,-0.95061 0.379999,-1.84684 0.659908,-2.68924 0.240633,-0.65711 0.580563,-1.38661 1.02371,-2.17971 0.472244,-0.78398 0.97003,-1.48011 1.488282,-2.09187 0.549727,-0.60847 1.097174,-1.09429 1.632975,-1.46089 l 0.02119,-0.0155 0.02377,-0.016 c 0.123211,-0.0908 0.157375,-0.0541 0.259416,-0.11111 z"
       id="path3899"
       inkscape:connector-curvature="0" />
    <path
       style="font-style:normal;font-variant:normal;font-weight:normal;font-stretch:normal;font-size:52.19702911px;line-height:20.38946342px;font-family:Bungasai;-inkscape-font-specification:'Bungasai, Normal';font-variant-ligatures:normal;font-variant-caps:normal;font-variant-numeric:normal;font-feature-settings:normal;text-align:start;letter-spacing:0px;word-spacing:0px;writing-mode:lr-tb;text-anchor:start;opacity:1;fill:#e9afaf;fill-opacity:1;stroke:none;stroke-width:3.08250165px;stroke-linecap:butt;stroke-linejoin:miter;stroke-opacity:1"
       d="m 49.0625,514.93359 c -8.24743,-8.9e-4 -16.609643,0.27815 -25.091797,0.86719 -0.841139,3.22005 -1.821328,6.72048 -3.029297,10.67383 -1.315201,4.60321 -2.695857,9.40265 -4.142578,14.40039 -1.446721,4.99777 -2.564395,9.53615 -3.353516,13.61328 -0.702834,3.966 -0.943543,7.52634 -0.726562,10.6875 -1.269427,1.29137 -2.626806,2.4064 -4.0859375,3.31836 -1.9728013,1.18367 -4.1424046,1.44665 -6.5097656,0.78906 -1.84128105,-0.52608 -3.2219378,-1.51225 -4.1425781,-2.95898 -0.7891206,-1.44673 -1.2512926,-3.02462 -1.3828126,-4.73438 -0.1315199,-1.84128 -0.065774,-3.68217 0.1972657,-5.52343 0.3945602,-1.84129 0.7909866,-3.48687 1.1855469,-4.9336 l 8.984375,-33.73437 c -12.2323049,1.45095 -24.7178718,3.59187 -37.4804688,6.53711 l -6.029297,22.85742 c -0.78912,2.89345 -1.315084,5.85395 -1.578125,8.87891 -0.26304,3.02493 -0.26304,6.04926 0,9.07421 0.789121,5.78689 3.287451,10.45677 7.496094,14.00782 4.208642,3.55104 10.522168,5.39191 18.939453,5.52343 4.4716821,0.13153 8.6156054,-0.32869 12.4296875,-1.38086 C 4.5562693,581.84434 7.9750382,580.00152 11,577.37109 c 1.340332,-1.11694 2.604688,-2.39703 3.802734,-3.82226 0.696322,1.41995 1.554272,2.69744 2.587891,3.82226 4.603203,4.86625 12.231639,7.30078 22.884766,7.30079 4.471682,-10e-6 8.613651,-0.52599 12.427734,-1.57813 3.814083,-1.05217 7.234806,-2.89499 10.259766,-5.52539 0.893634,-0.7447 1.751645,-1.5585 2.582031,-2.42969 1.801486,2.99727 4.001481,5.59626 6.611328,7.78516 4.208643,3.28801 9.207258,4.93164 14.994141,4.93164 4.997762,0 9.534203,-0.98617 13.611329,-2.95899 4.20864,-2.10431 7.8266,-4.40737 10.85156,-6.90625 l -9.66797,36.10352 c -1.05216,3.9456 -1.57812,7.95608 -1.57812,12.0332 0.13152,4.20866 0.92047,8.02385 2.36719,11.44336 1.44669,3.41952 3.68402,6.18084 6.70898,8.28516 3.02496,2.23584 7.03544,3.35351 12.0332,3.35351 3.15649,-0.1315 6.50951,-0.85472 10.06055,-2.16992 3.68256,-1.1837 6.8403,-2.89306 9.4707,-5.1289 l -0.78906,-1.77539 c -2.23584,0.39455 -3.87948,-0.3944 -4.93164,-2.36719 -0.39455,-1.05217 -0.65754,-2.43282 -0.78906,-4.14258 -0.13153,-1.57826 -0.13153,-3.28957 0,-5.13086 0.13152,-1.84126 0.32875,-3.68215 0.59179,-5.52344 0.39456,-1.70975 0.72329,-3.15614 0.98633,-4.33984 3.9456,-14.73023 7.89034,-29.32965 11.83594,-43.79688 3.9456,-14.59872 7.89229,-29.26195 11.83789,-43.99218 0.16857,-0.59 0.31502,-1.16913 0.45508,-1.74414 -11.09082,-2.50677 -22.35547,-4.83618 -33.81446,-6.86133 -0.28449,1.22274 -0.59971,2.49839 -0.96874,3.86914 l -11.44141,42.61328 c -2.49888,1.31523 -4.93147,1.70968 -7.29883,1.18359 -3.15648,-0.78914 -5.59102,-2.43276 -7.300781,-4.93164 -1.709762,-2.6304 -2.827435,-5.58894 -3.353515,-8.87695 -0.394553,-3.41951 -0.328815,-7.10323 0.197265,-11.04883 0.6576,-3.9456 1.578037,-7.6931 2.761719,-11.24414 1.052162,-2.89343 2.498562,-5.98542 4.339842,-9.27344 1.14399,-1.90665 2.33745,-3.68966 3.57031,-5.375 -11.307605,-1.57529 -22.814476,-2.78177 -34.546871,-3.49023 -3.77974,4.05472 -6.615731,8.64877 -8.478515,13.79883 -2.630393,7.36511 -4.011051,14.53139 -4.142578,21.50195 0,6.18823 0.833709,11.80352 2.492187,16.85156 -0.467283,0.3059 -0.937931,0.60484 -1.427734,0.87696 -2.23584,1.18367 -4.538888,1.44667 -6.90625,0.78906 -2.235843,-0.65759 -4.010972,-1.90676 -5.326172,-3.74805 -1.18368,-1.84128 -1.380917,-4.14237 -0.591797,-6.9043 0,-0.263 0.262985,-1.24922 0.789062,-2.95898 0.52608,-1.84128 1.117791,-3.94708 1.775391,-6.31445 0.657603,-2.49887 1.380802,-5.1287 2.169922,-7.89063 0.78912,-2.76193 1.512322,-5.39175 2.169922,-7.89062 0.78912,-2.49887 1.380831,-4.60275 1.775391,-6.3125 0.526072,-1.70979 0.8548,-2.76365 0.986328,-3.15821 1.032248,-3.47209 1.656033,-6.53476 1.884765,-9.20312 -3.468171,-0.0963 -6.948466,-0.16563 -10.457031,-0.16602 z m 115.24805,15.10743 -5.8418,21.3164 c -1.44672,5.52383 -1.84119,10.45672 -1.18359,14.79688 0.52608,4.20865 1.77524,7.82465 3.74804,10.84961 1.97281,2.89343 4.53688,5.19646 7.69336,6.90625 3.15649,1.70975 6.64295,2.76169 10.45703,3.15625 3.28801,0.39455 6.64103,0.32882 10.06055,-0.19727 3.55104,-0.65759 6.90602,-1.77526 10.0625,-3.35352 3.288,-1.5782 6.3123,-3.68405 9.07422,-6.31445 2.76192,-2.6304 5.12876,-5.72044 7.10156,-9.27148 0.52608,6.70753 3.09016,11.64041 7.69336,14.79687 4.6032,3.02499 11.17971,4.53711 19.72852,4.53711 4.47168,0 8.6156,-0.52595 12.42968,-1.57812 3.81409,-1.05217 7.23285,-2.89304 10.25782,-5.52344 0.93652,-0.78044 1.83411,-1.63923 2.70117,-2.55859 0.42614,0.62334 0.88709,1.21536 1.39453,1.76757 4.6032,4.86625 12.23164,7.30079 22.88477,7.30079 4.47168,-10e-6 8.61365,-0.52599 12.42773,-1.57813 3.81408,-1.05217 7.23285,-2.89499 10.25781,-5.52539 2.294,-1.91166 4.37866,-4.24499 6.25586,-6.99024 3.10102,4.47697 6.98641,7.86809 11.67383,10.14844 4.99777,2.36737 10.06214,3.55078 15.19141,3.55078 5.78689,0.13153 11.17801,-1.11764 16.17578,-3.74804 4.99774,-2.6304 8.61572,-6.77431 10.85156,-12.42969 0.39456,2.36737 1.31498,4.53695 2.76172,6.50977 1.44673,1.97276 3.28759,3.68413 5.52344,5.13085 2.36737,1.3152 4.93145,2.43288 7.69336,3.35352 2.76192,0.78911 5.65668,1.18359 8.68164,1.18359 4.47168,0.13153 8.61363,-0.32869 12.42773,-1.38086 3.81407,-1.05214 7.23481,-2.89496 10.25977,-5.52539 3.15648,-2.6304 5.91778,-6.11492 8.28515,-10.45507 2.49887,-4.34016 4.66848,-9.799 6.50977,-16.375 l -4.53711,-0.78907 c -0.52609,1.84129 -1.38076,4.01285 -2.56445,6.51172 -1.18368,2.4989 -2.63009,4.86572 -4.33985,7.10156 -1.57823,2.10432 -3.42105,3.81371 -5.52539,5.12891 -2.10431,1.18367 -4.33966,1.44665 -6.70703,0.78906 -1.84126,-0.52608 -3.22194,-1.51225 -4.14258,-2.95898 -0.78911,-1.57823 -1.24933,-3.22188 -1.38086,-4.93164 -0.1315,-1.84129 -0.0658,-3.68215 0.19727,-5.52344 0.39458,-1.84128 0.78903,-3.48687 1.18359,-4.93359 l 1.80274,-6.67969 c -13.2849,5.60724 -26.48239,9.48607 -39.6543,11.96484 -0.59062,1.40496 -1.24964,2.74094 -1.99805,3.98828 -1.1837,1.97282 -2.50056,3.55071 -3.94726,4.73438 -1.44673,1.18367 -3.1561,1.51239 -5.12891,0.98633 -2.89343,-0.78914 -5.06306,-2.36703 -6.50976,-4.73438 -0.39586,-0.75214 -0.73855,-1.54364 -1.03907,-2.36719 -12.12087,1.13256 -24.24597,1.1922 -36.41797,0.4629 0.41824,1.87033 0.94161,3.64082 1.58008,5.30273 -1.60027,1.63133 -3.37064,3.00798 -5.33203,4.09766 -2.23584,1.18367 -4.53694,1.44667 -6.9043,0.78906 -2.23584,-0.65759 -4.01097,-1.90676 -5.32617,-3.74805 -1.18368,-1.84128 -1.38089,-4.14237 -0.5918,-6.9043 0,-0.13315 0.0702,-0.4589 0.20508,-0.96289 -11.35609,-1.29804 -22.77566,-3.19239 -34.29101,-5.47656 -0.15005,0.70632 -0.30577,1.41899 -0.4375,2.09961 -0.95058,5.36397 -1.05424,9.98522 -0.32227,13.87695 -0.58283,0.39768 -1.18201,0.77148 -1.80078,1.11524 -2.23584,1.1837 -4.53693,1.44667 -6.9043,0.78906 -2.36736,-0.65759 -4.14444,-1.90676 -5.32812,-3.74805 -1.18368,-1.84128 -1.38092,-4.2081 -0.5918,-7.10156 0.86979,-3.26169 1.71464,-6.49876 2.54492,-9.7207 -11.18524,-2.45619 -22.49105,-5.21018 -33.91992,-8.07031 -0.65335,2.37375 -1.27526,4.65423 -1.96484,7.13671 -1.3152,4.99775 -2.82735,9.14168 -4.53711,12.42969 -1.57824,3.28799 -3.22188,5.91781 -4.93164,7.89063 -1.70976,1.84128 -3.41915,3.02469 -5.12891,3.55078 -1.70976,0.52608 -3.28961,0.59182 -4.73633,0.19726 -2.49888,-0.65758 -4.4055,-2.49848 -5.7207,-5.52343 -1.18369,-3.15649 -1.2494,-6.64098 -0.19727,-10.45508 l 5.8086,-20.61524 c -11.07449,-2.79036 -22.30222,-5.57223 -33.70117,-8.19921 z"
       id="path3912"
       transform="scale(0.26458333)"
       inkscape:connector-curvature="0" />
    <path
       style="color:#000000;font-style:normal;font-variant:normal;font-weight:normal;font-stretch:normal;font-size:52.19702911px;line-height:20.38946342px;font-family:Bungasai;-inkscape-font-specification:'Bungasai, Normal';font-variant-ligatures:normal;font-variant-position:normal;font-variant-caps:normal;font-variant-numeric:normal;font-variant-alternates:normal;font-feature-settings:normal;text-indent:0;text-align:start;text-decoration:none;text-decoration-line:none;text-decoration-style:solid;text-decoration-color:#000000;letter-spacing:0px;word-spacing:0px;text-transform:none;writing-mode:lr-tb;direction:ltr;text-orientation:mixed;dominant-baseline:auto;baseline-shift:baseline;text-anchor:start;white-space:normal;shape-padding:0;clip-rule:nonzero;display:inline;overflow:visible;visibility:visible;opacity:0.58373246;isolation:auto;mix-blend-mode:normal;color-interpolation:sRGB;color-interpolation-filters:linearRGB;solid-color:#000000;solid-opacity:1;vector-effect:none;fill:#0000ff;fill-opacity:1;fill-rule:nonzero;stroke:none;stroke-width:3.17499995;stroke-linecap:butt;stroke-linejoin:miter;stroke-miterlimit:4;stroke-dasharray:none;stroke-dashoffset:0;stroke-opacity:1;color-rendering:auto;image-rendering:auto;shape-rendering:auto;text-rendering:auto;enable-background:accumulate"
       d="m 54.236328,210.64844 0.40625,0.0664 c -0.136103,-0.0454 -0.256775,-0.0396 -0.386719,-0.0605 -0.0064,-0.002 -0.01312,-0.004 -0.01953,-0.006 z"
       id="path3889"
       inkscape:connector-curvature="0" />
    <path
       style="color:#000000;font-style:normal;font-variant:normal;font-weight:normal;font-stretch:normal;font-size:52.19702911px;line-height:20.38946342px;font-family:Bungasai;-inkscape-font-specification:'Bungasai, Normal';font-variant-ligatures:normal;font-variant-position:normal;font-variant-caps:normal;font-variant-numeric:normal;font-variant-alternates:normal;font-feature-settings:normal;text-indent:0;text-align:start;text-decoration:none;text-decoration-line:none;text-decoration-style:solid;text-decoration-color:#000000;letter-spacing:0px;word-spacing:0px;text-transform:none;writing-mode:lr-tb;direction:ltr;text-orientation:mixed;dominant-baseline:auto;baseline-shift:baseline;text-anchor:start;white-space:normal;shape-padding:0;clip-rule:nonzero;display:inline;overflow:visible;visibility:visible;opacity:0.58373246;isolation:auto;mix-blend-mode:normal;color-interpolation:sRGB;color-interpolation-filters:linearRGB;solid-color:#000000;solid-opacity:1;vector-effect:none;fill:#0000ff;fill-opacity:1;fill-rule:nonzero;stroke:none;stroke-width:3.17499995;stroke-linecap:butt;stroke-linejoin:miter;stroke-miterlimit:4;stroke-dasharray:none;stroke-dashoffset:0;stroke-opacity:1;color-rendering:auto;image-rendering:auto;shape-rendering:auto;text-rendering:auto;enable-background:accumulate"
       d="m -33.939453,211.02148 0.07031,0.0391 c -0.01684,-0.0101 -0.03777,-0.0135 -0.05469,-0.0234 -0.0066,-0.004 -0.009,-0.0121 -0.01563,-0.0156 z"
       id="path3887"
       inkscape:connector-curvature="0" />
    <path
       style="color:#000000;font-style:normal;font-variant:normal;font-weight:normal;font-stretch:normal;font-size:52.19702911px;line-height:20.38946342px;font-family:Bungasai;-inkscape-font-specification:'Bungasai, Normal';font-variant-ligatures:normal;font-variant-position:normal;font-variant-caps:normal;font-variant-numeric:normal;font-variant-alternates:normal;font-feature-settings:normal;text-indent:0;text-align:start;text-decoration:none;text-decoration-line:none;text-decoration-style:solid;text-decoration-color:#000000;letter-spacing:0px;word-spacing:0px;text-transform:none;writing-mode:lr-tb;direction:ltr;text-orientation:mixed;dominant-baseline:auto;baseline-shift:baseline;text-anchor:start;white-space:normal;shape-padding:0;clip-rule:nonzero;display:inline;overflow:visible;visibility:visible;opacity:0.58373246;isolation:auto;mix-blend-mode:normal;color-interpolation:sRGB;color-interpolation-filters:linearRGB;solid-color:#000000;solid-opacity:1;vector-effect:none;fill:#0000ff;fill-opacity:1;fill-rule:nonzero;stroke:none;stroke-width:3.17499995;stroke-linecap:butt;stroke-linejoin:miter;stroke-miterlimit:4;stroke-dasharray:none;stroke-dashoffset:0;stroke-opacity:1;color-rendering:auto;image-rendering:auto;shape-rendering:auto;text-rendering:auto;enable-background:accumulate"
       d="m 32.814453,211.55078 0.06836,0.0391 c -0.01612,-0.01 -0.03654,-0.0119 -0.05273,-0.0215 -0.007,-0.004 -0.0086,-0.0138 -0.01563,-0.0176 z"
       id="path3885"
       inkscape:connector-curvature="0" />
    <path
       style="color:#000000;font-style:normal;font-variant:normal;font-weight:normal;font-stretch:normal;font-size:52.19702911px;line-height:20.38946342px;font-family:Bungasai;-inkscape-font-specification:'Bungasai, Normal';font-variant-ligatures:normal;font-variant-position:normal;font-variant-caps:normal;font-variant-numeric:normal;font-variant-alternates:normal;font-feature-settings:normal;text-indent:0;text-align:start;text-decoration:none;text-decoration-line:none;text-decoration-style:solid;text-decoration-color:#000000;letter-spacing:0px;word-spacing:0px;text-transform:none;writing-mode:lr-tb;direction:ltr;text-orientation:mixed;dominant-baseline:auto;baseline-shift:baseline;text-anchor:start;white-space:normal;shape-padding:0;clip-rule:nonzero;display:inline;overflow:visible;visibility:visible;opacity:0.58373246;isolation:auto;mix-blend-mode:normal;color-interpolation:sRGB;color-interpolation-filters:linearRGB;solid-color:#000000;solid-opacity:1;vector-effect:none;fill:#0000ff;fill-opacity:1;fill-rule:nonzero;stroke:none;stroke-width:3.17499995;stroke-linecap:butt;stroke-linejoin:miter;stroke-miterlimit:4;stroke-dasharray:none;stroke-dashoffset:0;stroke-opacity:1;color-rendering:auto;image-rendering:auto;shape-rendering:auto;text-rendering:auto;enable-background:accumulate"
       d="m 49.652344,212.76953 c -0.0044,0.002 -0.0074,0.007 -0.01172,0.01 -0.0018,0.001 -0.0041,9e-4 -0.0059,0.002 z"
       id="path3883"
       inkscape:connector-curvature="0" />
    <path
       style="color:#000000;font-style:normal;font-variant:normal;font-weight:normal;font-stretch:normal;font-size:52.19702911px;line-height:20.38946342px;font-family:Bungasai;-inkscape-font-specification:'Bungasai, Normal';font-variant-ligatures:normal;font-variant-position:normal;font-variant-caps:normal;font-variant-numeric:normal;font-variant-alternates:normal;font-feature-settings:normal;text-indent:0;text-align:start;text-decoration:none;text-decoration-line:none;text-decoration-style:solid;text-decoration-color:#000000;letter-spacing:0px;word-spacing:0px;text-transform:none;writing-mode:lr-tb;direction:ltr;text-orientation:mixed;dominant-baseline:auto;baseline-shift:baseline;text-anchor:start;white-space:normal;shape-padding:0;clip-rule:nonzero;display:inline;overflow:visible;visibility:visible;opacity:0.58373246;isolation:auto;mix-blend-mode:normal;color-interpolation:sRGB;color-interpolation-filters:linearRGB;solid-color:#000000;solid-opacity:1;vector-effect:none;fill:#0000ff;fill-opacity:1;fill-rule:nonzero;stroke:none;stroke-width:3.17499995;stroke-linecap:butt;stroke-linejoin:miter;stroke-miterlimit:4;stroke-dasharray:none;stroke-dashoffset:0;stroke-opacity:1;color-rendering:auto;image-rendering:auto;shape-rendering:auto;text-rendering:auto;enable-background:accumulate"
       d="m -6.3378906,213.08414 0.023437,0.0254 c -0.00306,-0.004 -0.00865,-0.004 -0.011719,-0.008 -0.00474,-0.005 -0.00696,-0.0123 -0.011719,-0.0176 z"
       id="path3873"
       inkscape:connector-curvature="0" />
    <path
       style="color:#000000;font-style:normal;font-variant:normal;font-weight:normal;font-stretch:normal;font-size:52.19702911px;line-height:20.38946342px;font-family:Bungasai;-inkscape-font-specification:'Bungasai, Normal';font-variant-ligatures:normal;font-variant-position:normal;font-variant-caps:normal;font-variant-numeric:normal;font-variant-alternates:normal;font-feature-settings:normal;text-indent:0;text-align:start;text-decoration:none;text-decoration-line:none;text-decoration-style:solid;text-decoration-color:#000000;letter-spacing:0px;word-spacing:0px;text-transform:none;writing-mode:lr-tb;direction:ltr;text-orientation:mixed;dominant-baseline:auto;baseline-shift:baseline;text-anchor:start;white-space:normal;shape-padding:0;clip-rule:nonzero;display:inline;overflow:visible;visibility:visible;opacity:0.58373246;isolation:auto;mix-blend-mode:normal;color-interpolation:sRGB;color-interpolation-filters:linearRGB;solid-color:#000000;solid-opacity:1;vector-effect:none;fill:#0000ff;fill-opacity:1;fill-rule:nonzero;stroke:none;stroke-width:3.17499995;stroke-linecap:butt;stroke-linejoin:miter;stroke-miterlimit:4;stroke-dasharray:none;stroke-dashoffset:0;stroke-opacity:1;color-rendering:auto;image-rendering:auto;shape-rendering:auto;text-rendering:auto;enable-background:accumulate"
       d="m -4.6035156,216.68375 0.00977,0.0547 c -0.00151,-0.008 -0.00628,-0.0151 -0.00781,-0.0234 -0.00215,-0.01 2.416e-4,-0.0212 -0.00195,-0.0312 z"
       id="path3857"
       inkscape:connector-curvature="0" />
    <path
       style="color:#000000;font-style:normal;font-variant:normal;font-weight:normal;font-stretch:normal;font-size:52.19702911px;line-height:20.38946342px;font-family:Bungasai;-inkscape-font-specification:'Bungasai, Normal';font-variant-ligatures:normal;font-variant-position:normal;font-variant-caps:normal;font-variant-numeric:normal;font-variant-alternates:normal;font-feature-settings:normal;text-indent:0;text-align:start;text-decoration:none;text-decoration-line:none;text-decoration-style:solid;text-decoration-color:#000000;letter-spacing:0px;word-spacing:0px;text-transform:none;writing-mode:lr-tb;direction:ltr;text-orientation:mixed;dominant-baseline:auto;baseline-shift:baseline;text-anchor:start;white-space:normal;shape-padding:0;clip-rule:nonzero;display:inline;overflow:visible;visibility:visible;opacity:0.58373246;isolation:auto;mix-blend-mode:normal;color-interpolation:sRGB;color-interpolation-filters:linearRGB;solid-color:#000000;solid-opacity:1;vector-effect:none;fill:#0000ff;fill-opacity:1;fill-rule:nonzero;stroke:none;stroke-width:3.17499995;stroke-linecap:butt;stroke-linejoin:miter;stroke-miterlimit:4;stroke-dasharray:none;stroke-dashoffset:0;stroke-opacity:1;color-rendering:auto;image-rendering:auto;shape-rendering:auto;text-rendering:auto;enable-background:accumulate"
       d="m 9.0820312,230.13297 -0.021484,0.0449 c 0.00372,-0.007 0.00605,-0.0182 0.00977,-0.0254 0.00364,-0.008 0.00808,-0.0119 0.011719,-0.0195 z"
       id="path3851"
       inkscape:connector-curvature="0" />
    <path
       style="color:#000000;font-style:normal;font-variant:normal;font-weight:normal;font-stretch:normal;font-size:52.19702911px;line-height:20.38946342px;font-family:Bungasai;-inkscape-font-specification:'Bungasai, Normal';font-variant-ligatures:normal;font-variant-position:normal;font-variant-caps:normal;font-variant-numeric:normal;font-variant-alternates:normal;font-feature-settings:normal;text-indent:0;text-align:start;text-decoration:none;text-decoration-line:none;text-decoration-style:solid;text-decoration-color:#000000;letter-spacing:0px;word-spacing:0px;text-transform:none;writing-mode:lr-tb;direction:ltr;text-orientation:mixed;dominant-baseline:auto;baseline-shift:baseline;text-anchor:start;white-space:normal;shape-padding:0;clip-rule:nonzero;display:inline;overflow:visible;visibility:visible;opacity:0.58373246;isolation:auto;mix-blend-mode:normal;color-interpolation:sRGB;color-interpolation-filters:linearRGB;solid-color:#000000;solid-opacity:1;vector-effect:none;fill:#0000ff;fill-opacity:1;fill-rule:nonzero;stroke:none;stroke-width:3.17499995;stroke-linecap:butt;stroke-linejoin:miter;stroke-miterlimit:4;stroke-dasharray:none;stroke-dashoffset:0;stroke-opacity:1;color-rendering:auto;image-rendering:auto;shape-rendering:auto;text-rendering:auto;enable-background:accumulate"
       d="m -8.6425781,230.42594 c 7.28e-4,0.006 0.00512,0.01 0.00586,0.0156 0.00117,0.008 -0.00315,0.0175 -0.00195,0.0254 z"
       id="path3849"
       inkscape:connector-curvature="0" />
    <path
       style="color:#000000;font-style:normal;font-variant:normal;font-weight:normal;font-stretch:normal;font-size:52.19702911px;line-height:20.38946342px;font-family:Bungasai;-inkscape-font-specification:'Bungasai, Normal';font-variant-ligatures:normal;font-variant-position:normal;font-variant-caps:normal;font-variant-numeric:normal;font-variant-alternates:normal;font-feature-settings:normal;text-indent:0;text-align:start;text-decoration:none;text-decoration-line:none;text-decoration-style:solid;text-decoration-color:#000000;letter-spacing:0px;word-spacing:0px;text-transform:none;writing-mode:lr-tb;direction:ltr;text-orientation:mixed;dominant-baseline:auto;baseline-shift:baseline;text-anchor:start;white-space:normal;shape-padding:0;clip-rule:nonzero;display:inline;overflow:visible;visibility:visible;opacity:0.58373246;isolation:auto;mix-blend-mode:normal;color-interpolation:sRGB;color-interpolation-filters:linearRGB;solid-color:#000000;solid-opacity:1;vector-effect:none;fill:#0000ff;fill-opacity:1;fill-rule:nonzero;stroke:none;stroke-width:3.17499995;stroke-linecap:butt;stroke-linejoin:miter;stroke-miterlimit:4;stroke-dasharray:none;stroke-dashoffset:0;stroke-opacity:1;color-rendering:auto;image-rendering:auto;shape-rendering:auto;text-rendering:auto;enable-background:accumulate"
       d="m 3.3183594,234.0568 c 0.00194,5.3e-4 0.00392,-5.2e-4 0.00586,0 0.00287,7.7e-4 0.00494,0.003 0.00781,0.004 z"
       id="path3847"
       inkscape:connector-curvature="0" />
    <path
       style="color:#000000;font-style:normal;font-variant:normal;font-weight:normal;font-stretch:normal;font-size:52.19702911px;line-height:20.38946342px;font-family:Bungasai;-inkscape-font-specification:'Bungasai, Normal';font-variant-ligatures:normal;font-variant-position:normal;font-variant-caps:normal;font-variant-numeric:normal;font-variant-alternates:normal;font-feature-settings:normal;text-indent:0;text-align:start;text-decoration:none;text-decoration-line:none;text-decoration-style:solid;text-decoration-color:#000000;letter-spacing:0px;word-spacing:0px;text-transform:none;writing-mode:lr-tb;direction:ltr;text-orientation:mixed;dominant-baseline:auto;baseline-shift:baseline;text-anchor:start;white-space:normal;shape-padding:0;clip-rule:nonzero;display:inline;overflow:visible;visibility:visible;opacity:0.58373246;isolation:auto;mix-blend-mode:normal;color-interpolation:sRGB;color-interpolation-filters:linearRGB;solid-color:#000000;solid-opacity:1;vector-effect:none;fill:#0000ff;fill-opacity:1;fill-rule:nonzero;stroke:none;stroke-width:3.17499995;stroke-linecap:butt;stroke-linejoin:miter;stroke-miterlimit:4;stroke-dasharray:none;stroke-dashoffset:0;stroke-opacity:1;color-rendering:auto;image-rendering:auto;shape-rendering:auto;text-rendering:auto;enable-background:accumulate"
       d="m -44.730469,234.39469 -0.02539,0.0215 c 0.0063,-0.005 0.01125,-0.0123 0.01758,-0.0176 0.0022,-0.002 0.0056,-0.002 0.0078,-0.004 z"
       id="path3841"
       inkscape:connector-curvature="0" />
    <g
       id="g4044">
      <g
         transform="translate(1.0456428,-3.1369285)"
         style="opacity:0.53800001;fill:#ffffff"
         id="g3942">
        <circle
           style="opacity:1;fill:#ffffff;fill-opacity:1;fill-rule:nonzero;stroke:none;stroke-width:0;stroke-linecap:square;stroke-linejoin:round;stroke-miterlimit:4;stroke-dasharray:none;stroke-dashoffset:0;stroke-opacity:1"
           id="path3933"
           cx="-6.8234792"
           cy="145.61107"
           r="1.2506387" />
        <circle
           r="0.87420732"
           cy="145.40193"
           cx="-4.1884594"
           id="circle3935"
           style="opacity:1;fill:#ffffff;fill-opacity:1;fill-rule:nonzero;stroke:none;stroke-width:0;stroke-linecap:square;stroke-linejoin:round;stroke-miterlimit:4;stroke-dasharray:none;stroke-dashoffset:0;stroke-opacity:1" />
        <circle
           style="opacity:1;fill:#ffffff;fill-opacity:1;fill-rule:nonzero;stroke:none;stroke-width:0;stroke-linecap:square;stroke-linejoin:round;stroke-miterlimit:4;stroke-dasharray:none;stroke-dashoffset:0;stroke-opacity:1"
           id="circle3937"
           cx="-5.1295381"
           cy="143.66614"
           r="0.56051445" />
      </g>
      <g
         id="g3950"
         style="opacity:0.53800001;fill:#ffffff"
         transform="rotate(-102.51402,2.3094515,139.29927)">
        <circle
           r="1.2506387"
           cy="145.61107"
           cx="-6.8234792"
           id="circle3944"
           style="opacity:1;fill:#ffffff;fill-opacity:1;fill-rule:nonzero;stroke:none;stroke-width:0;stroke-linecap:square;stroke-linejoin:round;stroke-miterlimit:4;stroke-dasharray:none;stroke-dashoffset:0;stroke-opacity:1" />
        <circle
           style="opacity:1;fill:#ffffff;fill-opacity:1;fill-rule:nonzero;stroke:none;stroke-width:0;stroke-linecap:square;stroke-linejoin:round;stroke-miterlimit:4;stroke-dasharray:none;stroke-dashoffset:0;stroke-opacity:1"
           id="circle3946"
           cx="-4.1884594"
           cy="145.40193"
           r="0.87420732" />
        <circle
           r="0.56051445"
           cy="143.66614"
           cx="-5.1295381"
           id="circle3948"
           style="opacity:1;fill:#ffffff;fill-opacity:1;fill-rule:nonzero;stroke:none;stroke-width:0;stroke-linecap:square;stroke-linejoin:round;stroke-miterlimit:4;stroke-dasharray:none;stroke-dashoffset:0;stroke-opacity:1" />
      </g>
      <g
         transform="matrix(0.19882956,-0.89582483,-0.89582483,-0.19882956,151.11035,163.76686)"
         style="opacity:0.53800001;fill:#ffffff"
         id="g3958">
        <circle
           style="opacity:1;fill:#ffffff;fill-opacity:1;fill-rule:nonzero;stroke:none;stroke-width:0;stroke-linecap:square;stroke-linejoin:round;stroke-miterlimit:4;stroke-dasharray:none;stroke-dashoffset:0;stroke-opacity:1"
           id="circle3952"
           cx="-6.8234792"
           cy="145.61107"
           r="1.2506387" />
        <circle
           r="0.87420732"
           cy="145.40193"
           cx="-4.1884594"
           id="circle3954"
           style="opacity:1;fill:#ffffff;fill-opacity:1;fill-rule:nonzero;stroke:none;stroke-width:0;stroke-linecap:square;stroke-linejoin:round;stroke-miterlimit:4;stroke-dasharray:none;stroke-dashoffset:0;stroke-opacity:1" />
        <circle
           style="opacity:1;fill:#ffffff;fill-opacity:1;fill-rule:nonzero;stroke:none;stroke-width:0;stroke-linecap:square;stroke-linejoin:round;stroke-miterlimit:4;stroke-dasharray:none;stroke-dashoffset:0;stroke-opacity:1"
           id="circle3956"
           cx="-5.1295381"
           cy="143.66614"
           r="0.56051445" />
      </g>
      <g
         id="g3966"
         style="opacity:0.53800001;fill:#ffffff"
         transform="matrix(0.259442,1.1689136,-1.1689136,0.259442,207.96408,115.29923)">
        <circle
           r="1.2506387"
           cy="145.61107"
           cx="-6.8234792"
           id="circle3960"
           style="opacity:1;fill:#ffffff;fill-opacity:1;fill-rule:nonzero;stroke:none;stroke-width:0;stroke-linecap:square;stroke-linejoin:round;stroke-miterlimit:4;stroke-dasharray:none;stroke-dashoffset:0;stroke-opacity:1" />
        <circle
           style="opacity:1;fill:#ffffff;fill-opacity:1;fill-rule:nonzero;stroke:none;stroke-width:0;stroke-linecap:square;stroke-linejoin:round;stroke-miterlimit:4;stroke-dasharray:none;stroke-dashoffset:0;stroke-opacity:1"
           id="circle3962"
           cx="-4.1884594"
           cy="145.40193"
           r="0.87420732" />
        <circle
           r="0.56051445"
           cy="143.66614"
           cx="-5.1295381"
           id="circle3964"
           style="opacity:1;fill:#ffffff;fill-opacity:1;fill-rule:nonzero;stroke:none;stroke-width:0;stroke-linecap:square;stroke-linejoin:round;stroke-miterlimit:4;stroke-dasharray:none;stroke-dashoffset:0;stroke-opacity:1" />
      </g>
      <g
         transform="matrix(0.49045613,-0.58330947,-0.58330947,-0.49045613,117.85455,229.36321)"
         style="opacity:0.53800001;fill:#ffffff"
         id="g3974">
        <circle
           style="opacity:1;fill:#ffffff;fill-opacity:1;fill-rule:nonzero;stroke:none;stroke-width:0;stroke-linecap:square;stroke-linejoin:round;stroke-miterlimit:4;stroke-dasharray:none;stroke-dashoffset:0;stroke-opacity:1"
           id="circle3968"
           cx="-6.8234792"
           cy="145.61107"
           r="1.2506387" />
        <circle
           r="0.87420732"
           cy="145.40193"
           cx="-4.1884594"
           id="circle3970"
           style="opacity:1;fill:#ffffff;fill-opacity:1;fill-rule:nonzero;stroke:none;stroke-width:0;stroke-linecap:square;stroke-linejoin:round;stroke-miterlimit:4;stroke-dasharray:none;stroke-dashoffset:0;stroke-opacity:1" />
        <circle
           style="opacity:1;fill:#ffffff;fill-opacity:1;fill-rule:nonzero;stroke:none;stroke-width:0;stroke-linecap:square;stroke-linejoin:round;stroke-miterlimit:4;stroke-dasharray:none;stroke-dashoffset:0;stroke-opacity:1"
           id="circle3972"
           cx="-5.1295381"
           cy="143.66614"
           r="0.56051445" />
      </g>
      <g
         transform="matrix(-0.18399303,-0.82897895,0.82897895,-0.18399303,-73.362678,166.44346)"
         style="opacity:0.53800001;fill:#ffffff"
         id="g3982">
        <circle
           style="opacity:1;fill:#ffffff;fill-opacity:1;fill-rule:nonzero;stroke:none;stroke-width:0;stroke-linecap:square;stroke-linejoin:round;stroke-miterlimit:4;stroke-dasharray:none;stroke-dashoffset:0;stroke-opacity:1"
           id="circle3976"
           cx="-6.8234792"
           cy="145.61107"
           r="1.2506387" />
        <circle
           r="0.87420732"
           cy="145.40193"
           cx="-4.1884594"
           id="circle3978"
           style="opacity:1;fill:#ffffff;fill-opacity:1;fill-rule:nonzero;stroke:none;stroke-width:0;stroke-linecap:square;stroke-linejoin:round;stroke-miterlimit:4;stroke-dasharray:none;stroke-dashoffset:0;stroke-opacity:1" />
        <circle
           style="opacity:1;fill:#ffffff;fill-opacity:1;fill-rule:nonzero;stroke:none;stroke-width:0;stroke-linecap:square;stroke-linejoin:round;stroke-miterlimit:4;stroke-dasharray:none;stroke-dashoffset:0;stroke-opacity:1"
           id="circle3980"
           cx="-5.1295381"
           cy="143.66614"
           r="0.56051445" />
      </g>
      <g
         id="g3990"
         style="opacity:0.53800001;fill:#ffffff"
         transform="matrix(0.14542148,-0.65519516,-0.65519516,-0.14542148,158.22428,168.03221)">
        <circle
           r="1.2506387"
           cy="145.61107"
           cx="-6.8234792"
           id="circle3984"
           style="opacity:1;fill:#ffffff;fill-opacity:1;fill-rule:nonzero;stroke:none;stroke-width:0;stroke-linecap:square;stroke-linejoin:round;stroke-miterlimit:4;stroke-dasharray:none;stroke-dashoffset:0;stroke-opacity:1" />
        <circle
           style="opacity:1;fill:#ffffff;fill-opacity:1;fill-rule:nonzero;stroke:none;stroke-width:0;stroke-linecap:square;stroke-linejoin:round;stroke-miterlimit:4;stroke-dasharray:none;stroke-dashoffset:0;stroke-opacity:1"
           id="circle3986"
           cx="-4.1884594"
           cy="145.40193"
           r="0.87420732" />
        <circle
           r="0.56051445"
           cy="143.66614"
           cx="-5.1295381"
           id="circle3988"
           style="opacity:1;fill:#ffffff;fill-opacity:1;fill-rule:nonzero;stroke:none;stroke-width:0;stroke-linecap:square;stroke-linejoin:round;stroke-miterlimit:4;stroke-dasharray:none;stroke-dashoffset:0;stroke-opacity:1" />
      </g>
      <g
         id="g3998"
         style="opacity:0.53800001;fill:#ffffff"
         transform="matrix(0.30298093,-0.79326042,-0.79326042,-0.30298093,208.01031,190.76721)">
        <circle
           r="1.2506387"
           cy="145.61107"
           cx="-6.8234792"
           id="circle3992"
           style="opacity:1;fill:#ffffff;fill-opacity:1;fill-rule:nonzero;stroke:none;stroke-width:0;stroke-linecap:square;stroke-linejoin:round;stroke-miterlimit:4;stroke-dasharray:none;stroke-dashoffset:0;stroke-opacity:1" />
        <circle
           style="opacity:1;fill:#ffffff;fill-opacity:1;fill-rule:nonzero;stroke:none;stroke-width:0;stroke-linecap:square;stroke-linejoin:round;stroke-miterlimit:4;stroke-dasharray:none;stroke-dashoffset:0;stroke-opacity:1"
           id="circle3994"
           cx="-4.1884594"
           cy="145.40193"
           r="0.87420732" />
        <circle
           r="0.56051445"
           cy="143.66614"
           cx="-5.1295381"
           id="circle3996"
           style="opacity:1;fill:#ffffff;fill-opacity:1;fill-rule:nonzero;stroke:none;stroke-width:0;stroke-linecap:square;stroke-linejoin:round;stroke-miterlimit:4;stroke-dasharray:none;stroke-dashoffset:0;stroke-opacity:1" />
      </g>
      <g
         transform="matrix(-0.37279163,-0.97603781,0.97603781,-0.37279163,-38.927049,199.022)"
         style="opacity:0.53800001;fill:#ffffff"
         id="g4006">
        <circle
           style="opacity:1;fill:#ffffff;fill-opacity:1;fill-rule:nonzero;stroke:none;stroke-width:0;stroke-linecap:square;stroke-linejoin:round;stroke-miterlimit:4;stroke-dasharray:none;stroke-dashoffset:0;stroke-opacity:1"
           id="circle4000"
           cx="-6.8234792"
           cy="145.61107"
           r="1.2506387" />
        <circle
           r="0.87420732"
           cy="145.40193"
           cx="-4.1884594"
           id="circle4002"
           style="opacity:1;fill:#ffffff;fill-opacity:1;fill-rule:nonzero;stroke:none;stroke-width:0;stroke-linecap:square;stroke-linejoin:round;stroke-miterlimit:4;stroke-dasharray:none;stroke-dashoffset:0;stroke-opacity:1" />
        <circle
           style="opacity:1;fill:#ffffff;fill-opacity:1;fill-rule:nonzero;stroke:none;stroke-width:0;stroke-linecap:square;stroke-linejoin:round;stroke-miterlimit:4;stroke-dasharray:none;stroke-dashoffset:0;stroke-opacity:1"
           id="circle4004"
           cx="-5.1295381"
           cy="143.66614"
           r="0.56051445" />
      </g>
    </g>
  </g>
</svg>
