<?xml version="1.0" encoding="UTF-8" standalone="no"?>
<!-- Created with Inkscape (http://www.inkscape.org/) -->

<svg
   xmlns:osb="http://www.openswatchbook.org/uri/2009/osb"
   xmlns:dc="http://purl.org/dc/elements/1.1/"
   xmlns:cc="http://creativecommons.org/ns#"
   xmlns:rdf="http://www.w3.org/1999/02/22-rdf-syntax-ns#"
   xmlns:svg="http://www.w3.org/2000/svg"
   xmlns="http://www.w3.org/2000/svg"
   xmlns:xlink="http://www.w3.org/1999/xlink"
   xmlns:sodipodi="http://sodipodi.sourceforge.net/DTD/sodipodi-0.dtd"
   xmlns:inkscape="http://www.inkscape.org/namespaces/inkscape"
   id="svg3642"
   viewBox="0 0 164.01848 82.350335"
   version="1.0"
   height="82.350334"
   width="164.01848"
   inkscape:version="0.92.3 (2405546, 2018-03-11)"
   sodipodi:docname="background.svg">
  <sodipodi:namedview
     inkscape:showpageshadow="false"
     inkscape:pagecheckerboard="true"
     inkscape:window-maximized="0"
     inkscape:window-y="139"
     inkscape:window-x="0"
     pagecolor="#ffffff"
     bordercolor="#666666"
     borderopacity="1"
     objecttolerance="10"
     gridtolerance="10"
     guidetolerance="10"
     inkscape:pageopacity="0"
     inkscape:pageshadow="2"
     inkscape:window-width="1551"
     inkscape:window-height="898"
     id="namedview36"
     showgrid="false"
     inkscape:zoom="13.413975"
     inkscape:cx="61.81185"
     inkscape:cy="30.839284"
     inkscape:current-layer="svg3642"
     fit-margin-top="5"
     fit-margin-left="5"
     fit-margin-right="5"
     fit-margin-bottom="5"
     showguides="true"
     inkscape:guide-bbox="true"
     inkscape:snap-others="false" />
  <defs
     id="defs3644">
    <linearGradient
       id="border-3"
       osb:paint="solid">
      <stop
         style="stop-color:#000000;stop-opacity:0.49803922;"
         offset="0"
         id="stop1657" />
    </linearGradient>
    <linearGradient
       osb:paint="solid"
       id="linearGradient852">
      <stop
         id="stop850"
         offset="0"
         style="stop-color:#3f41df;stop-opacity:1;" />
    </linearGradient>
    <linearGradient
       osb:paint="solid"
       id="North_Panel">
      <stop
         id="stop844"
         offset="0"
         style="stop-color:#151212;stop-opacity:0.80392158;" />
    </linearGradient>
    <linearGradient
       inkscape:collect="always"
       xlink:href="#North_Panel"
       id="linearGradient1364"
       gradientUnits="userSpaceOnUse"
       gradientTransform="matrix(0.33333334,0,0,0.33333334,50.658486,30.851634)"
       x1="3.5"
       y1="36"
       x2="51.5"
       y2="36" />
    <linearGradient
       inkscape:collect="always"
       xlink:href="#linearGradient852"
       id="linearGradient2472"
       gradientUnits="userSpaceOnUse"
       gradientTransform="matrix(0.04166667,0,0,8,39.989989,344.07829)"
       x1="12"
       y1="-52"
       x2="60"
       y2="-52" />
    <linearGradient
       inkscape:collect="always"
       xlink:href="#linearGradient852"
       id="linearGradient2476"
       gradientUnits="userSpaceOnUse"
       gradientTransform="matrix(0.04166667,0,0,8,43.717131,368.24391)"
       x1="12"
       y1="-52"
       x2="60"
       y2="-52" />
    <linearGradient
       inkscape:collect="always"
       xlink:href="#linearGradient852"
       id="linearGradient2480"
       gradientUnits="userSpaceOnUse"
       gradientTransform="matrix(0.16666668,0,0,2,24.458052,45.478385)"
       x1="12"
       y1="-52"
       x2="60"
       y2="-52" />
    <linearGradient
       inkscape:collect="always"
       xlink:href="#linearGradient852"
       id="linearGradient2484"
       gradientUnits="userSpaceOnUse"
       gradientTransform="matrix(0.16666668,0,0,2,48.774467,42.74456)"
       x1="12"
       y1="-52"
       x2="60"
       y2="-52" />
    <linearGradient
       inkscape:collect="always"
       xlink:href="#North_Panel"
       id="linearGradient1002"
       gradientUnits="userSpaceOnUse"
       gradientTransform="matrix(0.33333334,0,0,8,23.024342,-169.82515)"
       x1="3.5"
       y1="11.5"
       x2="51.5"
       y2="11.5" />
    <linearGradient
       inkscape:collect="always"
       xlink:href="#border-3"
       id="linearGradient1665"
       gradientUnits="userSpaceOnUse"
       gradientTransform="matrix(0.33333334,0,0,0.99999994,23.024342,-92.825149)"
       x1="3.5"
       y1="11.5"
       x2="51.5"
       y2="11.5" />
    <linearGradient
       inkscape:collect="always"
       xlink:href="#North_Panel"
       id="linearGradient2354"
       gradientUnits="userSpaceOnUse"
       gradientTransform="matrix(0.33333334,0,0,8,23.024342,-169.82515)"
       x1="3.5"
       y1="11.5"
       x2="51.5"
       y2="11.5" />
    <linearGradient
       inkscape:collect="always"
       xlink:href="#border-3"
       id="linearGradient2356"
       gradientUnits="userSpaceOnUse"
       gradientTransform="matrix(0.33333334,0,0,0.99999994,23.024342,-92.825149)"
       x1="3.5"
       y1="11.5"
       x2="51.5"
       y2="11.5" />
    <linearGradient
       inkscape:collect="always"
       xlink:href="#North_Panel"
       id="linearGradient2366"
       gradientUnits="userSpaceOnUse"
       gradientTransform="matrix(0.33333334,0,0,8,23.024342,-169.82515)"
       x1="3.5"
       y1="11.5"
       x2="51.5"
       y2="11.5" />
    <linearGradient
       inkscape:collect="always"
       xlink:href="#border-3"
       id="linearGradient2368"
       gradientUnits="userSpaceOnUse"
       gradientTransform="matrix(0.33333334,0,0,0.99999994,23.024342,-92.825149)"
       x1="3.5"
       y1="11.5"
       x2="51.5"
       y2="11.5" />
    <linearGradient
       inkscape:collect="always"
       xlink:href="#North_Panel"
       id="linearGradient2378"
       gradientUnits="userSpaceOnUse"
       gradientTransform="matrix(0.33333334,0,0,8,23.024342,-169.82515)"
       x1="3.5"
       y1="11.5"
       x2="51.5"
       y2="11.5" />
    <linearGradient
       inkscape:collect="always"
       xlink:href="#border-3"
       id="linearGradient2380"
       gradientUnits="userSpaceOnUse"
       gradientTransform="matrix(0.33333334,0,0,0.99999994,23.024342,-92.825149)"
       x1="3.5"
       y1="11.5"
       x2="51.5"
       y2="11.5" />
    <linearGradient
       inkscape:collect="always"
       xlink:href="#North_Panel"
       id="linearGradient2398"
       gradientUnits="userSpaceOnUse"
       gradientTransform="matrix(0.875,0,0,-0.875,4.8263623,77.04379)"
       x1="77.050217"
       y1="61.44746"
       x2="85.050217"
       y2="61.44746" />
    <linearGradient
       inkscape:collect="always"
       xlink:href="#border-3"
       id="linearGradient909"
       gradientUnits="userSpaceOnUse"
       gradientTransform="matrix(1,0,0,-1,-4.805797,84.224803)"
       x1="77.050217"
       y1="61.44746"
       x2="85.050217"
       y2="61.44746" />
    <linearGradient
       inkscape:collect="always"
       xlink:href="#North_Panel"
       id="linearGradient923"
       gradientUnits="userSpaceOnUse"
       gradientTransform="matrix(0.875,0,0,-0.875,4.8263623,77.04379)"
       x1="77.050217"
       y1="61.44746"
       x2="85.050217"
       y2="61.44746" />
    <linearGradient
       inkscape:collect="always"
       xlink:href="#border-3"
       id="linearGradient925"
       gradientUnits="userSpaceOnUse"
       gradientTransform="matrix(1,0,0,-1,-4.805797,84.224803)"
       x1="77.050217"
       y1="61.44746"
       x2="85.050217"
       y2="61.44746" />
    <linearGradient
       inkscape:collect="always"
       xlink:href="#North_Panel"
       id="linearGradient1609"
       gradientUnits="userSpaceOnUse"
       gradientTransform="matrix(0.875,0,0,-0.875,4.8263623,77.04379)"
       x1="77.050217"
       y1="61.44746"
       x2="85.050217"
       y2="61.44746" />
    <linearGradient
       inkscape:collect="always"
       xlink:href="#border-3"
       id="linearGradient1611"
       gradientUnits="userSpaceOnUse"
       gradientTransform="matrix(1,0,0,-1,-4.805797,84.224803)"
       x1="77.050217"
       y1="61.44746"
       x2="85.050217"
       y2="61.44746" />
    <linearGradient
       inkscape:collect="always"
       xlink:href="#North_Panel"
       id="linearGradient1619"
       gradientUnits="userSpaceOnUse"
       gradientTransform="matrix(0.875,0,0,-0.875,4.8263623,77.04379)"
       x1="77.050217"
       y1="61.44746"
       x2="85.050217"
       y2="61.44746" />
    <linearGradient
       inkscape:collect="always"
       xlink:href="#border-3"
       id="linearGradient1621"
       gradientUnits="userSpaceOnUse"
       gradientTransform="matrix(1,0,0,-1,-4.805797,84.224803)"
       x1="77.050217"
       y1="61.44746"
       x2="85.050217"
       y2="61.44746" />
    <radialGradient
       inkscape:collect="always"
       xlink:href="#linearGradient2516"
       id="radialGradient999"
       gradientUnits="userSpaceOnUse"
       gradientTransform="matrix(0,-1.4743855,1.463621,0,124.86538,214.99752)"
       cx="125.33475"
       cy="-5.6638875"
       fx="125.33475"
       fy="-5.6638875"
       r="14" />
    <linearGradient
       id="linearGradient2516"
       inkscape:collect="always">
      <stop
         id="stop2512"
         offset="0"
         style="stop-color:#010101;stop-opacity:0.24347825" />
      <stop
         id="stop2514"
         offset="1"
         style="stop-color:#010101;stop-opacity:0;" />
    </linearGradient>
    <radialGradient
       inkscape:collect="always"
       xlink:href="#linearGradient2516"
       id="radialGradient995"
       gradientUnits="userSpaceOnUse"
       gradientTransform="matrix(0,1.4743855,1.463621,0,124.86538,-133.72012)"
       cx="125.33475"
       cy="-5.6638875"
       fx="125.33475"
       fy="-5.6638875"
       r="14" />
    <radialGradient
       inkscape:collect="always"
       xlink:href="#linearGradient2516"
       id="radialGradient991"
       gradientUnits="userSpaceOnUse"
       gradientTransform="matrix(0,-1.4743855,-1.463621,0,129.15338,214.99752)"
       cx="125.33475"
       cy="-5.6638875"
       fx="125.33475"
       fy="-5.6638875"
       r="14" />
    <linearGradient
       inkscape:collect="always"
       xlink:href="#linearGradient2510"
       id="linearGradient987"
       gradientUnits="userSpaceOnUse"
       gradientTransform="matrix(1,0,0,1.1111111,-57.139251,-161.79104)"
       x1="98.310097"
       y1="37.769989"
       x2="98.310097"
       y2="19.48439" />
    <linearGradient
       id="linearGradient2510"
       inkscape:collect="always">
      <stop
         id="stop2506"
         offset="0"
         style="stop-color:#010101;stop-opacity:0.24347825" />
      <stop
         id="stop2508"
         offset="1"
         style="stop-color:#020202;stop-opacity:0" />
    </linearGradient>
    <linearGradient
       inkscape:collect="always"
       xlink:href="#linearGradient852"
       id="linearGradient1833"
       gradientUnits="userSpaceOnUse"
       gradientTransform="matrix(0.41666671,0,0,2,141.74661,17.654972)"
       x1="3.5"
       y1="11.5"
       x2="51.5"
       y2="11.5" />
    <radialGradient
       inkscape:collect="always"
       xlink:href="#linearGradient2516"
       id="radialGradient2469"
       cx="125.33475"
       cy="-5.6638875"
       fx="125.33475"
       fy="-5.6638875"
       r="14"
       gradientUnits="userSpaceOnUse"
       gradientTransform="matrix(0,1.4743855,-1.463621,0,129.15334,-133.7193)" />
    <linearGradient
       inkscape:collect="always"
       xlink:href="#linearGradient852"
       id="linearGradient1825"
       gradientUnits="userSpaceOnUse"
       gradientTransform="matrix(0.04166667,0,0,20,125.81253,-215.57449)"
       x1="3.5"
       y1="11.5"
       x2="51.5"
       y2="11.5" />
    <linearGradient
       inkscape:collect="always"
       xlink:href="#linearGradient852"
       id="linearGradient1837"
       gradientUnits="userSpaceOnUse"
       gradientTransform="matrix(0.41666671,0,0,2,89.208374,17.565163)"
       x1="3.5"
       y1="11.5"
       x2="51.5"
       y2="11.5" />
    <linearGradient
       inkscape:collect="always"
       xlink:href="#linearGradient852"
       id="linearGradient1829"
       gradientUnits="userSpaceOnUse"
       gradientTransform="matrix(0.04166667,0,0,20,125.20324,-163.22416)"
       x1="3.5"
       y1="11.5"
       x2="51.5"
       y2="11.5" />
    <linearGradient
       inkscape:collect="always"
       xlink:href="#linearGradient2510"
       id="linearGradient1010"
       gradientUnits="userSpaceOnUse"
       gradientTransform="matrix(1,0,0,1.1111111,-57.139251,-161.79104)"
       x1="98.310097"
       y1="37.769989"
       x2="98.310097"
       y2="19.48439" />
    <linearGradient
       inkscape:collect="always"
       xlink:href="#linearGradient2510"
       id="linearGradient1012"
       gradientUnits="userSpaceOnUse"
       gradientTransform="matrix(1,0,0,1.1111111,-57.139251,-161.79104)"
       x1="98.310097"
       y1="37.769989"
       x2="98.310097"
       y2="19.48439" />
    <linearGradient
       inkscape:collect="always"
       xlink:href="#linearGradient2510"
       id="linearGradient1014"
       gradientUnits="userSpaceOnUse"
       gradientTransform="matrix(1,0,0,1.1111111,-57.139251,-161.79104)"
       x1="98.310097"
       y1="37.769989"
       x2="98.310097"
       y2="19.48439" />
  </defs>
  <metadata
     id="metadata3647">
    <rdf:RDF>
      <cc:Work
         rdf:about="">
        <dc:format>image/svg+xml</dc:format>
        <dc:type
           rdf:resource="http://purl.org/dc/dcmitype/StillImage" />
        <dc:title />
      </cc:Work>
      <cc:Work
         rdf:about="">
        <dc:format>image/svg+xml</dc:format>
        <dc:type
           rdf:resource="http://purl.org/dc/dcmitype/StillImage" />
      </cc:Work>
      <cc:Work
         rdf:about="">
        <dc:format>image/svg+xml</dc:format>
        <dc:type
           rdf:resource="http://purl.org/dc/dcmitype/StillImage" />
      </cc:Work>
    </rdf:RDF>
  </metadata>
  <rect
     id="center"
     height="16"
     x="51.825153"
     y="34.851631"
     width="16"
     style="fill:url(#linearGradient1364);fill-opacity:1;stroke-width:0.31999999" />
  <rect
     id="mask-center"
     height="16"
     x="13"
     y="35.088894"
     width="16"
     style="fill:#000000;fill-opacity:1;stroke-width:0.31999999" />
  <rect
     style="fill:#000000;fill-opacity:1;stroke-width:0.22627418"
     width="16"
     y="27.088894"
     x="13"
     height="8"
     id="mask-top" />
  <rect
     id="mask-bottom"
     height="8"
     x="13"
     y="51.088902"
     width="16"
     style="fill:#000000;fill-opacity:1;stroke-width:0.22627418" />
  <rect
     style="fill:#000000;fill-opacity:1;stroke-width:0.22627418"
     width="16"
     y="-37"
     x="35.088894"
     height="8"
     id="mask-right"
     transform="rotate(90)" />
  <rect
     transform="rotate(90)"
     id="mask-left"
     height="8"
     x="35.088894"
     y="-13"
     width="16"
     style="fill:#000000;fill-opacity:1;stroke-width:0.22627418" />
  <path
     transform="scale(1,-1)"
     d="m 37,-35.088894 a 8,8 0 0 1 -8,8 l 0,-8 z"
     sodipodi:end="1.5707963"
     sodipodi:start="0"
     sodipodi:ry="8"
     sodipodi:rx="8"
     sodipodi:cy="-35.088894"
     sodipodi:cx="29"
     sodipodi:type="arc"
     id="mask-topright"
     style="opacity:1;fill:#000000;fill-opacity:1;fill-rule:nonzero;stroke:none;stroke-width:4.59416437;stroke-linecap:round;stroke-miterlimit:4;stroke-dasharray:none;stroke-dashoffset:0;stroke-opacity:1" />
  <path
     style="opacity:1;fill:#000000;fill-opacity:1;fill-rule:nonzero;stroke:none;stroke-width:4.59416437;stroke-linecap:round;stroke-miterlimit:4;stroke-dasharray:none;stroke-dashoffset:0;stroke-opacity:1"
     id="mask-topleft"
     sodipodi:type="arc"
     sodipodi:cx="-13"
     sodipodi:cy="-35.088894"
     sodipodi:rx="8"
     sodipodi:ry="8"
     sodipodi:start="0"
     sodipodi:end="1.5707963"
     d="m -5,-35.088894 a 8,8 0 0 1 -8,8 l 0,-8 z"
     transform="scale(-1)" />
  <path
     style="opacity:1;fill:#000000;fill-opacity:1;fill-rule:nonzero;stroke:none;stroke-width:4.59416437;stroke-linecap:round;stroke-miterlimit:4;stroke-dasharray:none;stroke-dashoffset:0;stroke-opacity:1"
     id="mask-bottomright"
     sodipodi:type="arc"
     sodipodi:cx="29"
     sodipodi:cy="51.088902"
     sodipodi:rx="8"
     sodipodi:ry="8"
     sodipodi:start="0"
     sodipodi:end="1.5707963"
     d="m 37,51.088902 a 8,8 0 0 1 -8,8 l 0,-8 z" />
  <path
     transform="scale(-1,1)"
     d="m -5,51.088902 a 8,8 0 0 1 -8,8 l 0,-8 z"
     sodipodi:end="1.5707963"
     sodipodi:start="0"
     sodipodi:ry="8"
     sodipodi:rx="8"
     sodipodi:cy="51.088902"
     sodipodi:cx="-13"
     sodipodi:type="arc"
     id="mask-bottomleft"
     style="opacity:1;fill:#000000;fill-opacity:1;fill-rule:nonzero;stroke:none;stroke-width:4.59416437;stroke-linecap:round;stroke-miterlimit:4;stroke-dasharray:none;stroke-dashoffset:0;stroke-opacity:1" />
  <rect
     transform="rotate(90)"
     id="hint-right-margin"
     height="8"
     x="40.489983"
     y="-75.921692"
     width="2"
     style="fill:url(#linearGradient2472);fill-opacity:1;stroke-width:0.07999999" />
  <rect
     style="fill:url(#linearGradient2476);fill-opacity:1;stroke-width:0.07999999"
     width="2"
     y="-51.756084"
     x="44.217129"
     height="8"
     id="hint-left-margin"
     transform="rotate(90)" />
  <rect
     transform="rotate(90)"
     id="hint-top-margin"
     height="2"
     x="26.458038"
     y="-59.52161"
     width="8"
     style="fill:url(#linearGradient2480);fill-opacity:1;stroke-width:0.07999999" />
  <rect
     style="fill:url(#linearGradient2484);fill-opacity:1;stroke-width:0.08"
     width="8"
     y="-62.255432"
     x="50.774467"
     height="2"
     id="hint-bottom-margin"
     transform="rotate(90)" />
  <g
     id="right"
     transform="translate(-6,10.660625)">
    <g
       transform="matrix(0.875,0,0,1,9.2281437,0)"
       id="g1683">
      <rect
         id="rect1670"
         height="8"
         x="24.191008"
         y="-81.82515"
         width="16"
         style="fill:url(#linearGradient1002);fill-opacity:1;stroke-width:0.22627418"
         transform="rotate(90)" />
    </g>
    <rect
       id="rect1663"
       height="1"
       x="24.191008"
       y="-81.82515"
       width="16"
       style="fill:url(#linearGradient1665);fill-opacity:1;stroke-width:0.08000001"
       transform="rotate(90)" />
  </g>
  <g
     transform="matrix(-1,0,0,1,125.6503,10.660625)"
     id="left">
    <g
       id="g2348"
       transform="matrix(0.875,0,0,1,9.2281437,0)">
      <rect
         transform="rotate(90)"
         style="fill:url(#linearGradient2354);fill-opacity:1;stroke-width:0.22627418"
         width="16"
         y="-81.82515"
         x="24.191008"
         height="8"
         id="rect2346" />
    </g>
    <rect
       transform="rotate(90)"
       style="fill:url(#linearGradient2356);fill-opacity:1;stroke-width:0.08000001"
       width="16"
       y="-81.82515"
       x="24.191008"
       height="1"
       id="rect2350" />
  </g>
  <g
     transform="rotate(-90,68.155461,40.521321)"
     id="top">
    <g
       id="g2360"
       transform="matrix(0.875,0,0,1,9.2281437,0)">
      <rect
         transform="rotate(90)"
         style="fill:url(#linearGradient2366);fill-opacity:1;stroke-width:0.22627418"
         width="16"
         y="-81.82515"
         x="24.191008"
         height="8"
         id="rect2358" />
    </g>
    <rect
       transform="rotate(90)"
       style="fill:url(#linearGradient2368);fill-opacity:1;stroke-width:0.08000001"
       width="16"
       y="-81.82515"
       x="24.191008"
       height="1"
       id="rect2362" />
  </g>
  <g
     transform="rotate(90,57.494837,34.521321)"
     id="bottom">
    <g
       id="g2372"
       transform="matrix(0.875,0,0,1,9.2281437,0)">
      <rect
         transform="rotate(90)"
         style="fill:url(#linearGradient2378);fill-opacity:1;stroke-width:0.22627418"
         width="16"
         y="-81.82515"
         x="24.191008"
         height="8"
         id="rect2370" />
    </g>
    <rect
       transform="rotate(90)"
       style="fill:url(#linearGradient2380);fill-opacity:1;stroke-width:0.08000001"
       width="16"
       y="-81.82515"
       x="24.191008"
       height="1"
       id="rect2374" />
  </g>
  <g
     id="topright"
     transform="translate(-4.4209445,8.0742886)">
    <path
       id="path2392"
       d="m 72.246094,19.919922 v 6.857422 h 6.855468 v -1.142578 c 0,-3.428572 -2.28432,-5.714844 -5.71289,-5.714844 z"
       style="opacity:1;fill:url(#linearGradient2398);fill-opacity:1;stroke:none;stroke-width:1"
       inkscape:connector-curvature="0" />
    <path
       inkscape:connector-curvature="0"
       d="m 80.244422,24.49163 c 0,-3.165715 -2.54857,-5.714286 -5.71429,-5.714286 h -2.28571 v 1.142857 h 1.14286 c 3.42857,0 5.71428,2.285714 5.71428,5.714286 v 1.142857 h 1.14286 z"
       style="opacity:1;fill:url(#linearGradient909);fill-opacity:1;stroke:none;stroke-width:1.14285707"
       id="path907" />
  </g>
  <g
     transform="matrix(1,0,0,-1,-4.4209436,77.628978)"
     id="bottomright">
    <path
       inkscape:connector-curvature="0"
       style="opacity:1;fill:url(#linearGradient923);fill-opacity:1;stroke:none;stroke-width:1"
       d="m 72.246094,19.919922 v 6.857422 h 6.855468 v -1.142578 c 0,-3.428572 -2.28432,-5.714844 -5.71289,-5.714844 z"
       id="path916" />
    <path
       id="path919"
       style="opacity:1;fill:url(#linearGradient925);fill-opacity:1;stroke:none;stroke-width:1.14285707"
       d="m 80.244422,24.49163 c 0,-3.165715 -2.54857,-5.714286 -5.71429,-5.714286 h -2.28571 v 1.142857 h 1.14286 c 3.42857,0 5.71428,2.285714 5.71428,5.714286 v 1.142857 h 1.14286 z"
       inkscape:connector-curvature="0" />
  </g>
  <g
     transform="matrix(-1,0,0,1,124.0679,8.0742886)"
     id="topleft">
    <path
       inkscape:connector-curvature="0"
       style="opacity:1;fill:url(#linearGradient1609);fill-opacity:1;stroke:none;stroke-width:1"
       d="m 72.246094,19.919922 v 6.857422 h 6.855468 v -1.142578 c 0,-3.428572 -2.28432,-5.714844 -5.71289,-5.714844 z"
       id="path1603" />
    <path
       id="path1605"
       style="opacity:1;fill:url(#linearGradient1611);fill-opacity:1;stroke:none;stroke-width:1.14285707"
       d="m 80.244422,24.49163 c 0,-3.165715 -2.54857,-5.714286 -5.71429,-5.714286 h -2.28571 v 1.142857 h 1.14286 c 3.42857,0 5.71428,2.285714 5.71428,5.714286 v 1.142857 h 1.14286 z"
       inkscape:connector-curvature="0" />
  </g>
  <g
     id="bottomleft"
     transform="rotate(-180,62.03562,38.814489)">
    <path
       id="path1613"
       d="m 72.246094,19.919922 v 6.857422 h 6.855468 v -1.142578 c 0,-3.428572 -2.28432,-5.714844 -5.71289,-5.714844 z"
       style="opacity:1;fill:url(#linearGradient1619);fill-opacity:1;stroke:none;stroke-width:1"
       inkscape:connector-curvature="0" />
    <path
       inkscape:connector-curvature="0"
       d="m 80.244422,24.49163 c 0,-3.165715 -2.54857,-5.714286 -5.71429,-5.714286 h -2.28571 v 1.142857 h 1.14286 c 3.42857,0 5.71428,2.285714 5.71428,5.714286 v 1.142857 h 1.14286 z"
       style="opacity:1;fill:url(#linearGradient1621);fill-opacity:1;stroke:none;stroke-width:1.14285707"
       id="path1615" />
  </g>
  <rect
     style="fill:none;fill-opacity:0.24313725;stroke-width:0.31999999"
     width="16"
     y="32.638687"
     x="119.00937"
     height="16"
     id="shadow-center" />
  <rect
     id="shadow-hint-bottom-margin"
     height="20"
     x="125.34908"
     y="56.775867"
     width="2"
     style="fill:url(#linearGradient1829);fill-opacity:1;stroke-width:0.12649111" />
  <rect
     id="shadow-hint-left-margin"
     height="2"
     x="90.666603"
     y="39.565163"
     width="20"
     style="fill:url(#linearGradient1837);fill-opacity:1;stroke-width:0.12649111" />
  <rect
     style="fill:url(#linearGradient1825);fill-opacity:1;stroke-width:0.12649111"
     width="2"
     y="4.4255319"
     x="125.95836"
     height="20"
     id="shadow-hint-top-margin" />
  <path
     style="opacity:1;fill:url(#radialGradient2469);fill-opacity:1;fill-rule:nonzero;stroke:none;stroke-width:7.09614515;stroke-linecap:round;stroke-miterlimit:4;stroke-dasharray:none;stroke-dashoffset:0;stroke-opacity:1"
     d="m 143.00935,48.639512 v 2.285157 c 0,3.165715 -2.54912,5.714843 -5.71484,5.714843 h -2.28516 v 20.000001 h 28 V 48.639512 Z"
     id="shadow-bottomright"
     inkscape:connector-curvature="0" />
  <rect
     style="fill:url(#linearGradient1833);fill-opacity:1;stroke-width:0.1264911"
     width="20"
     y="39.654968"
     x="143.20491"
     height="2"
     id="shadow-hint-right-margin" />
  <g
     id="shadow-bottom"
     transform="rotate(90,77.463129,8.6722885)">
    <rect
       id="rect2447"
       height="20"
       x="32.873951"
       y="-145.42953"
       width="16"
       style="fill:url(#linearGradient1010);fill-opacity:1;stroke-width:0.35777089"
       transform="matrix(0,-1,-1,0,0,0)" />
    <rect
       style="opacity:1;fill:none;fill-opacity:0.69130435;fill-rule:nonzero;stroke:none;stroke-width:1.92223215;stroke-linecap:round;stroke-miterlimit:4;stroke-dasharray:none;stroke-dashoffset:0;stroke-opacity:1"
       id="rect2449"
       width="16"
       height="7.999999"
       x="32.873951"
       y="-125.42953"
       transform="matrix(0,-1,-1,0,0,0)" />
  </g>
  <g
     transform="translate(17.579853,81.512637)"
     id="shadow-right">
    <rect
       transform="matrix(0,-1,-1,0,0,0)"
       style="fill:url(#linearGradient1012);fill-opacity:1;stroke-width:0.35777089"
       width="16"
       y="-145.42953"
       x="32.873951"
       height="20"
       id="rect965" />
    <rect
       transform="matrix(0,-1,-1,0,0,0)"
       y="-125.42953"
       x="32.873951"
       height="7.999999"
       width="16"
       id="rect967"
       style="opacity:1;fill:none;fill-opacity:0.69130435;fill-rule:nonzero;stroke:none;stroke-width:1.92223215;stroke-linecap:round;stroke-miterlimit:4;stroke-dasharray:none;stroke-dashoffset:0;stroke-opacity:1" />
  </g>
  <g
     transform="rotate(180,118.21945,-0.11763237)"
     id="shadow-left">
    <rect
       transform="matrix(0,-1,-1,0,0,0)"
       style="fill:url(#linearGradient1014);fill-opacity:1;stroke-width:0.35777089"
       width="16"
       y="-145.42953"
       x="32.873951"
       height="20"
       id="rect973" />
    <rect
       transform="matrix(0,-1,-1,0,0,0)"
       y="-125.42953"
       x="32.873951"
       height="7.999999"
       width="16"
       id="rect975"
       style="opacity:1;fill:none;fill-opacity:0.69130435;fill-rule:nonzero;stroke:none;stroke-width:1.92223215;stroke-linecap:round;stroke-miterlimit:4;stroke-dasharray:none;stroke-dashoffset:0;stroke-opacity:1" />
  </g>
  <g
     transform="matrix(0,-1,-1,0,86.135429,150.06822)"
     id="shadow-top">
    <rect
       transform="matrix(0,-1,-1,0,0,0)"
       style="fill:url(#linearGradient987);fill-opacity:1;stroke-width:0.35777089"
       width="16"
       y="-145.42953"
       x="32.873951"
       height="20"
       id="rect981" />
    <rect
       transform="matrix(0,-1,-1,0,0,0)"
       y="-125.42953"
       x="32.873951"
       height="7.999999"
       width="16"
       id="rect983"
       style="opacity:1;fill:none;fill-opacity:0.69130435;fill-rule:nonzero;stroke:none;stroke-width:1.92223215;stroke-linecap:round;stroke-miterlimit:4;stroke-dasharray:none;stroke-dashoffset:0;stroke-opacity:1" />
  </g>
  <path
     inkscape:connector-curvature="0"
     id="shadow-topright"
     d="m 143.00939,32.638686 v -2.285157 c 0,-3.165715 -2.54912,-5.714843 -5.71484,-5.714843 h -2.28516 V 4.6386854 h 28 V 32.638686 Z"
     style="opacity:1;fill:url(#radialGradient991);fill-opacity:1;fill-rule:nonzero;stroke:none;stroke-width:7.09614515;stroke-linecap:round;stroke-miterlimit:4;stroke-dasharray:none;stroke-dashoffset:0;stroke-opacity:1" />
  <path
     inkscape:connector-curvature="0"
     id="shadow-bottomleft"
     d="m 111.00937,48.638692 v 2.285157 c 0,3.165715 2.54912,5.714843 5.71484,5.714843 h 2.28516 V 76.638693 H 91.009368 V 48.638692 Z"
     style="opacity:1;fill:url(#radialGradient995);fill-opacity:1;fill-rule:nonzero;stroke:none;stroke-width:7.09614515;stroke-linecap:round;stroke-miterlimit:4;stroke-dasharray:none;stroke-dashoffset:0;stroke-opacity:1" />
  <path
     inkscape:connector-curvature="0"
     id="shadow-topleft"
     d="m 111.00937,32.638686 v -2.285157 c 0,-3.165715 2.54912,-5.714843 5.71484,-5.714843 h 2.28516 V 4.6386854 H 91.009365 V 32.638686 Z"
     style="opacity:1;fill:url(#radialGradient999);fill-opacity:1;fill-rule:nonzero;stroke:none;stroke-width:7.09614515;stroke-linecap:round;stroke-miterlimit:4;stroke-dasharray:none;stroke-dashoffset:0;stroke-opacity:1" />
</svg>
