<?xml version="1.0" encoding="UTF-8" standalone="no"?>
<!-- Created with Inkscape (http://www.inkscape.org/) -->

<svg
   xmlns:osb="http://www.openswatchbook.org/uri/2009/osb"
   xmlns:dc="http://purl.org/dc/elements/1.1/"
   xmlns:cc="http://creativecommons.org/ns#"
   xmlns:rdf="http://www.w3.org/1999/02/22-rdf-syntax-ns#"
   xmlns:svg="http://www.w3.org/2000/svg"
   xmlns="http://www.w3.org/2000/svg"
   xmlns:xlink="http://www.w3.org/1999/xlink"
   xmlns:sodipodi="http://sodipodi.sourceforge.net/DTD/sodipodi-0.dtd"
   xmlns:inkscape="http://www.inkscape.org/namespaces/inkscape"
   sodipodi:docname="button.svg"
   inkscape:version="0.92.3 (2405546, 2018-03-11)"
   height="42.183956"
   version="1.1"
   viewBox="0 0 139.46453 42.183931"
   width="139.46445"
   id="svg2">
  <sodipodi:namedview
     inkscape:guide-bbox="true"
     showguides="true"
     fit-margin-bottom="5"
     fit-margin-right="5"
     fit-margin-left="5"
     fit-margin-top="5"
     inkscape:showpageshadow="false"
     inkscape:window-maximized="1"
     inkscape:window-y="0"
     inkscape:window-x="0"
     inkscape:pagecheckerboard="true"
     inkscape:measure-end="0,0"
     inkscape:measure-start="0,0"
     inkscape:current-layer="svg2"
     inkscape:cy="21.642402"
     inkscape:cx="62.024595"
     inkscape:zoom="13.96375"
     showgrid="false"
     id="namedview4532"
     inkscape:window-height="1135"
     inkscape:window-width="1920"
     inkscape:pageshadow="2"
     inkscape:pageopacity="0"
     guidetolerance="10"
     gridtolerance="10"
     objecttolerance="10"
     borderopacity="1"
     bordercolor="#666666"
     pagecolor="#ffffff" />
  <defs
     id="defs4">
    <linearGradient
       id="pressedbody"
       osb:paint="solid">
      <stop
         style="stop-color:#f0f0f0;stop-opacity:1;"
         offset="0"
         id="stop1533" />
    </linearGradient>
    <linearGradient
       id="pressedborder"
       osb:paint="solid">
      <stop
         style="stop-color:#e0e0e0;stop-opacity:1;"
         offset="0"
         id="stop1499" />
    </linearGradient>
    <linearGradient
       id="linearGradient970"
       inkscape:collect="always">
      <stop
         id="stop966"
         offset="0"
         style="stop-color:#f0f0f0;stop-opacity:1" />
      <stop
         id="stop968"
         offset="1"
         style="stop-color:#ffffff;stop-opacity:1" />
    </linearGradient>
    <linearGradient
       osb:paint="solid"
       id="buttonborder">
      <stop
         id="stop917"
         offset="0"
         style="stop-color:#d8d8d8;stop-opacity:1;" />
    </linearGradient>
    <linearGradient
       osb:paint="solid"
       id="body">
      <stop
         id="stop889"
         offset="0"
         style="stop-color:#f8f8f6;stop-opacity:1;" />
    </linearGradient>
    <linearGradient
       osb:paint="solid"
       id="hoverborder">
      <stop
         id="stop2885"
         offset="0"
         style="stop-color:#3294f9;stop-opacity:0.62352943;" />
    </linearGradient>
    <style
       type="text/css"
       id="current-color-scheme">
      .ColorScheme-Text {
        color:#31363b;
        stop-color:#31363b;
      }
      .ColorScheme-Background {
        color:#ffffff;
        stop-color:#ffffff;
      }
      .ColorScheme-Highlight {
        
        stop-
      }
      .ColorScheme-ViewText {
        color:#31363b;
        stop-color:#31363b;
      }
      .ColorScheme-ViewBackground {
        color:#fcfcfc;
        stop-color:#fcfcfc;
      }
      .ColorScheme-ViewHover {
        color:#93cee9;
        stop-color:#93cee9;
      }
      .ColorScheme-ViewFocus{
        
        stop-
      }
      .ColorScheme-ButtonText {
        color:#31363b;
        stop-color:#31363b;
      }
      .ColorScheme-ButtonBackground {
        color:#eff0f1;
        stop-color:#eff0f1;
      }
      .ColorScheme-ButtonHover {
        color:#93cee9;
        stop-color:#93cee9;
      }
      .ColorScheme-ButtonFocus{
        
        stop-
      }
      </style>
    <linearGradient
       gradientUnits="userSpaceOnUse"
       y2="-22.253868"
       x2="-153.31055"
       y1="-22.253868"
       x1="-154.31055"
       id="linearGradient2889"
       xlink:href="#hoverborder"
       inkscape:collect="always" />
    <linearGradient
       gradientUnits="userSpaceOnUse"
       y2="132.10868"
       x2="-2.0504664"
       y1="132.10868"
       x1="-3.050467"
       id="linearGradient2891"
       xlink:href="#hoverborder"
       inkscape:collect="always" />
    <linearGradient
       gradientUnits="userSpaceOnUse"
       y2="-22.253868"
       x2="-153.31055"
       y1="-22.253868"
       x1="-154.31055"
       id="linearGradient2893"
       xlink:href="#hoverborder"
       inkscape:collect="always" />
    <linearGradient
       gradientUnits="userSpaceOnUse"
       y2="132.10868"
       x2="-2.0504581"
       y1="132.10868"
       x1="-3.0504587"
       id="linearGradient2895"
       xlink:href="#hoverborder"
       inkscape:collect="always" />
    <linearGradient
       gradientUnits="userSpaceOnUse"
       y2="-22.253868"
       x2="-153.31055"
       y1="-22.253868"
       x1="-154.31055"
       id="linearGradient2897"
       xlink:href="#hoverborder"
       inkscape:collect="always" />
    <linearGradient
       gradientUnits="userSpaceOnUse"
       y2="132.10868"
       x2="-2.0504664"
       y1="132.10868"
       x1="-3.050467"
       id="linearGradient2899"
       xlink:href="#hoverborder"
       inkscape:collect="always" />
    <linearGradient
       gradientUnits="userSpaceOnUse"
       y2="-22.253868"
       x2="-153.31055"
       y1="-22.253868"
       x1="-154.31055"
       id="linearGradient2901"
       xlink:href="#hoverborder"
       inkscape:collect="always" />
    <linearGradient
       gradientUnits="userSpaceOnUse"
       y2="132.10868"
       x2="-2.0504664"
       y1="132.10868"
       x1="-3.050467"
       id="linearGradient2903"
       xlink:href="#hoverborder"
       inkscape:collect="always" />
    <linearGradient
       gradientUnits="userSpaceOnUse"
       y2="19.00001"
       x2="-30.999998"
       y1="19.00001"
       x1="-33"
       id="linearGradient899"
       xlink:href="#body"
       inkscape:collect="always" />
    <linearGradient
       gradientUnits="userSpaceOnUse"
       y2="19.000015"
       x2="-4.9999838"
       y1="19.000015"
       x1="-6.9999852"
       id="linearGradient911"
       xlink:href="#body"
       inkscape:collect="always" />
    <linearGradient
       gradientUnits="userSpaceOnUse"
       y2="-8.0839605"
       x2="2.8183601"
       y1="-8.0839605"
       x1="1.8183594"
       id="linearGradient923"
       xlink:href="#body"
       inkscape:collect="always" />
    <linearGradient
       gradientUnits="userSpaceOnUse"
       y2="-0.87899715"
       x2="-40.853069"
       y1="-0.87899715"
       x1="-41.853069"
       id="linearGradient929"
       xlink:href="#body"
       inkscape:collect="always" />
    <linearGradient
       gradientUnits="userSpaceOnUse"
       y2="-33.449192"
       x2="-35.919922"
       y1="-33.449192"
       x1="-36.919922"
       id="linearGradient935"
       xlink:href="#body"
       inkscape:collect="always" />
    <linearGradient
       gradientUnits="userSpaceOnUse"
       y2="-0.92770892"
       x2="-37.601562"
       y1="-0.92770892"
       x1="-38.601562"
       id="linearGradient941"
       xlink:href="#body"
       inkscape:collect="always" />
    <linearGradient
       gradientUnits="userSpaceOnUse"
       y2="19.00001"
       x2="-31.999999"
       y1="19.00001"
       x1="-33"
       id="linearGradient921"
       xlink:href="#buttonborder"
       inkscape:collect="always" />
    <linearGradient
       gradientUnits="userSpaceOnUse"
       y2="19.00001"
       x2="-4.9999886"
       y1="19.00001"
       x1="-5.999989"
       id="linearGradient927"
       xlink:href="#buttonborder"
       inkscape:collect="always" />
    <linearGradient
       gradientUnits="userSpaceOnUse"
       y2="19.00001"
       x2="-4.9999886"
       y1="19.00001"
       x1="-5.999989"
       id="linearGradient930"
       xlink:href="#buttonborder"
       inkscape:collect="always" />
    <linearGradient
       gradientUnits="userSpaceOnUse"
       y2="19.00001"
       x2="-31.999998"
       y1="19.00001"
       x1="-33"
       id="linearGradient932"
       xlink:href="#buttonborder"
       inkscape:collect="always" />
    <linearGradient
       gradientUnits="userSpaceOnUse"
       y2="-0.072265618"
       x2="39.291016"
       y1="-0.072265618"
       x1="37.587891"
       id="linearGradient950"
       xlink:href="#buttonborder"
       inkscape:collect="always" />
    <linearGradient
       gradientUnits="userSpaceOnUse"
       y2="0.58981776"
       x2="39.601562"
       y1="0.58981776"
       x1="38.601562"
       id="linearGradient952"
       xlink:href="#buttonborder"
       inkscape:collect="always" />
    <linearGradient
       gradientUnits="userSpaceOnUse"
       y2="7.5839844"
       x2="-1.8183594"
       y1="7.5839844"
       x1="-3.8183594"
       id="linearGradient958"
       xlink:href="#buttonborder"
       inkscape:collect="always" />
    <linearGradient
       gradientUnits="userSpaceOnUse"
       y2="0.5411061"
       x2="42.853069"
       y1="0.5411061"
       x1="41.853069"
       id="linearGradient964"
       xlink:href="#buttonborder"
       inkscape:collect="always" />
    <linearGradient
       gradientUnits="userSpaceOnUse"
       y2="-5.9858284"
       x2="-10.392802"
       y1="-32.115437"
       x1="-10.392802"
       id="linearGradient972"
       xlink:href="#linearGradient970"
       inkscape:collect="always" />
    <linearGradient
       gradientUnits="userSpaceOnUse"
       y2="19.000015"
       x2="-6.0025806"
       y1="19.000015"
       x1="-31.993286"
       id="linearGradient988"
       xlink:href="#linearGradient970"
       inkscape:collect="always" />
    <linearGradient
       gradientUnits="userSpaceOnUse"
       y2="19.00001"
       x2="-5.9844422"
       y1="19.00001"
       x1="-32.088501"
       id="linearGradient996"
       xlink:href="#linearGradient970"
       inkscape:collect="always" />
    <linearGradient
       y2="19.000015"
       x2="-6.0025806"
       y1="19.000015"
       x1="-32.043926"
       gradientUnits="userSpaceOnUse"
       id="linearGradient1077"
       xlink:href="#pressedbody"
       inkscape:collect="always" />
    <linearGradient
       inkscape:collect="always"
       xlink:href="#pressedbody"
       id="linearGradient1457"
       x1="-6.645514"
       y1="6.0364885"
       x2="-6.645514"
       y2="32.064819"
       gradientUnits="userSpaceOnUse" />
    <linearGradient
       inkscape:collect="always"
       xlink:href="#pressedbody"
       id="linearGradient1465"
       x1="-41.45919"
       y1="-0.39560235"
       x2="-41.45919"
       y2="-26.350302"
       gradientUnits="userSpaceOnUse" />
    <linearGradient
       inkscape:collect="always"
       xlink:href="#pressedbody"
       id="linearGradient1473"
       x1="2.4766636"
       y1="-33.580585"
       x2="2.4766636"
       y2="-7.476295"
       gradientUnits="userSpaceOnUse" />
    <linearGradient
       inkscape:collect="always"
       xlink:href="#pressedbody"
       id="linearGradient1481"
       x1="-31"
       y1="6.0000057"
       x2="-30.986328"
       y2="32.013687"
       gradientUnits="userSpaceOnUse" />
    <linearGradient
       inkscape:collect="always"
       xlink:href="#pressedbody"
       id="linearGradient1489"
       x1="-35.919922"
       y1="-33.949196"
       x2="-35.919918"
       y2="-7.9491858"
       gradientUnits="userSpaceOnUse" />
    <linearGradient
       inkscape:collect="always"
       xlink:href="#pressedbody"
       id="linearGradient1497"
       x1="-37.601562"
       y1="-26.441393"
       x2="-37.601562"
       y2="-0.42770863"
       gradientUnits="userSpaceOnUse" />
    <linearGradient
       inkscape:collect="always"
       xlink:href="#pressedborder"
       id="linearGradient1503"
       x1="-33"
       y1="19.00001"
       x2="-31.999999"
       y2="19.00001"
       gradientUnits="userSpaceOnUse" />
    <linearGradient
       inkscape:collect="always"
       xlink:href="#pressedborder"
       id="linearGradient1509"
       x1="37.587891"
       y1="-0.072265618"
       x2="39.291016"
       y2="-0.072265618"
       gradientUnits="userSpaceOnUse" />
    <linearGradient
       inkscape:collect="always"
       xlink:href="#pressedborder"
       id="linearGradient1511"
       x1="38.601562"
       y1="0.58981776"
       x2="39.601562"
       y2="0.58981776"
       gradientUnits="userSpaceOnUse" />
    <linearGradient
       inkscape:collect="always"
       xlink:href="#pressedborder"
       id="linearGradient1513"
       x1="-5.999989"
       y1="19.00001"
       x2="-4.9999886"
       y2="19.00001"
       gradientUnits="userSpaceOnUse" />
    <linearGradient
       inkscape:collect="always"
       xlink:href="#pressedborder"
       id="linearGradient1515"
       x1="-3.8183594"
       y1="7.5839844"
       x2="-1.8183594"
       y2="7.5839844"
       gradientUnits="userSpaceOnUse" />
    <linearGradient
       inkscape:collect="always"
       xlink:href="#pressedborder"
       id="linearGradient1517"
       x1="-5.999989"
       y1="19.00001"
       x2="-4.9999886"
       y2="19.00001"
       gradientUnits="userSpaceOnUse" />
    <linearGradient
       inkscape:collect="always"
       xlink:href="#pressedborder"
       id="linearGradient1519"
       x1="40.839397"
       y1="-0.12100247"
       x2="42.542522"
       y2="-0.12100247"
       gradientUnits="userSpaceOnUse" />
    <linearGradient
       inkscape:collect="always"
       xlink:href="#pressedborder"
       id="linearGradient1521"
       x1="41.853069"
       y1="0.5411061"
       x2="42.853069"
       y2="0.5411061"
       gradientUnits="userSpaceOnUse" />
    <linearGradient
       inkscape:collect="always"
       xlink:href="#pressedborder"
       id="linearGradient1523"
       x1="-33"
       y1="19.00001"
       x2="-31.999998"
       y2="19.00001"
       gradientUnits="userSpaceOnUse" />
    <linearGradient
       inkscape:collect="always"
       xlink:href="#pressedborder"
       id="linearGradient1525"
       x1="35.919922"
       y1="33.949219"
       x2="37.919922"
       y2="33.949219"
       gradientUnits="userSpaceOnUse" />
    <linearGradient
       inkscape:collect="always"
       xlink:href="#pressedbody"
       id="linearGradient1537"
       x1="-82.854126"
       y1="19.999093"
       x2="-58.854113"
       y2="19.999093"
       gradientUnits="userSpaceOnUse" />
    <linearGradient
       inkscape:collect="always"
       xlink:href="#pressedbody"
       id="linearGradient1539"
       gradientUnits="userSpaceOnUse"
       x1="-32.088501"
       y1="19.00001"
       x2="-5.9844422"
       y2="19.00001" />
  </defs>
  <metadata
     id="metadata7">
    <rdf:RDF>
      <cc:Work
         rdf:about="">
        <dc:format>image/svg+xml</dc:format>
        <dc:type
           rdf:resource="http://purl.org/dc/dcmitype/StillImage" />
        <dc:title />
      </cc:Work>
    </rdf:RDF>
  </metadata>
  <rect
     transform="scale(-1)"
     style="fill:url(#linearGradient972);fill-opacity:1;fill-rule:evenodd;stroke-width:2.00000119"
     class="ColorScheme-ViewFocus"
     height="24.000013"
     width="24.000013"
     x="-31.000017"
     y="-31.000002"
     id="normal-center" />
  <rect
     ry="0.63440871"
     transform="scale(-1)"
     style="fill:none;fill-opacity:0.14173229;fill-rule:evenodd;stroke-width:2.00000119"
     class="ColorScheme-ViewFocus"
     height="24.000013"
     width="24.000013"
     x="-130.46449"
     y="-33.183956"
     id="hover-center" />
  <g
     style="fill:#000000;fill-opacity:0.14173229"
     id="hover-top"
     transform="translate(-13.644174,6.1334782)">
    <rect
       transform="rotate(-90)"
       style="fill:none;fill-opacity:0.14173229;fill-rule:evenodd;stroke-width:0.81649709"
       height="24.000013"
       width="4.0000024"
       x="-3.050467"
       y="120.10867"
       id="rect4601" />
    <rect
       id="rect4595"
       y="120.10867"
       x="-3.050467"
       width="1.0000006"
       height="24.000013"
       class="ColorScheme-Text"
       style="fill:url(#linearGradient2899);fill-opacity:1;fill-rule:evenodd;stroke-width:0.40824854"
       transform="rotate(-90)" />
  </g>
  <g
     style="fill:#000000;fill-opacity:0.14173229"
     transform="matrix(1,0,0,-1,-13.644189,36.234424)"
     id="hover-bottom">
    <rect
       id="rect4603"
       y="120.10867"
       x="-3.050467"
       width="4.0000024"
       height="24.000013"
       style="fill:none;fill-opacity:0.14173229;fill-rule:evenodd;stroke-width:0.81649709"
       transform="rotate(-90)" />
    <rect
       transform="rotate(-90)"
       class="ColorScheme-Text"
       style="fill:url(#linearGradient2891);fill-opacity:1;fill-rule:evenodd;stroke-width:0.40824854"
       height="24.000013"
       width="1.0000006"
       x="-3.050467"
       y="120.10867"
       id="rect4605" />
  </g>
  <g
     style="fill:#000000;fill-opacity:0.14173229"
     id="hover-right"
     transform="matrix(0,-1,-1,0,133.51498,153.29263)">
    <rect
       transform="rotate(-90)"
       style="fill:none;fill-opacity:0.14173229;fill-rule:evenodd;stroke-width:0.81649709"
       height="24.000013"
       width="4.0000024"
       x="-3.050467"
       y="120.10867"
       id="rect4609" />
    <rect
       id="rect4611"
       y="120.10867"
       x="-3.050467"
       width="1.0000006"
       height="24.000013"
       class="ColorScheme-Text"
       style="fill:url(#linearGradient2903);fill-opacity:1;fill-rule:evenodd;stroke-width:0.40824854"
       transform="rotate(-90)" />
  </g>
  <g
     style="fill:#000000;fill-opacity:0.14173229"
     transform="rotate(-90,128.35332,24.939308)"
     id="hover-left">
    <rect
       id="rect4615"
       y="120.10867"
       x="-3.050467"
       width="4.0000024"
       height="24.000013"
       style="fill:none;fill-opacity:0.14173229;fill-rule:evenodd;stroke-width:0.81649709"
       transform="rotate(-90)" />
    <rect
       transform="rotate(-90)"
       class="ColorScheme-Text"
       style="fill:url(#linearGradient2895);fill-opacity:1;fill-rule:evenodd;stroke-width:0.40824854"
       height="24.000013"
       width="1.0000006"
       x="-3.0504587"
       y="120.10867"
       id="rect4617" />
  </g>
  <g
     style="fill:#000000;fill-opacity:0.14173229"
     id="hover-topright"
     transform="translate(-22.846033,-13.569923)">
    <path
       id="rect4623"
       transform="translate(0,-3.7758427e-5)"
       d="m 153.31055,18.753906 v 3 h 1 v 1 h 3 v -4 z"
       style="fill:none;fill-opacity:0.14173229;fill-rule:evenodd;stroke-width:0.33333355"
       inkscape:connector-curvature="0" />
    <rect
       id="rect4654"
       y="-22.753868"
       x="-154.31055"
       width="1.0000006"
       height="1.0000006"
       class="ColorScheme-Text"
       style="fill:url(#linearGradient2901);fill-opacity:1;fill-rule:evenodd;stroke-width:0.08333339"
       transform="scale(-1)" />
  </g>
  <g
     style="fill:#000000;fill-opacity:0.14173229"
     transform="matrix(-1,0,0,1,259.77503,-13.569929)"
     id="hover-topleft">
    <path
       inkscape:connector-curvature="0"
       style="fill:none;fill-opacity:0.14173229;fill-rule:evenodd;stroke-width:0.33333355"
       d="m 153.31055,18.753906 v 3 h 1 v 1 h 3 v -4 z"
       transform="translate(0,-3.7758427e-5)"
       id="path4661" />
    <rect
       transform="scale(-1)"
       class="ColorScheme-Text"
       style="fill:url(#linearGradient2897);fill-opacity:1;fill-rule:evenodd;stroke-width:0.08333339"
       height="1.0000006"
       width="1.0000006"
       x="-154.31055"
       y="-22.753868"
       id="rect4663" />
  </g>
  <g
     style="fill:#000000;fill-opacity:0.14173229"
     id="hover-bottomleft"
     transform="rotate(-180,129.88751,27.968914)">
    <path
       id="path4667"
       transform="translate(0,-3.7758427e-5)"
       d="m 153.31055,18.753906 v 3 h 1 v 1 h 3 v -4 z"
       style="fill:none;fill-opacity:0.14173229;fill-rule:evenodd;stroke-width:0.33333355"
       inkscape:connector-curvature="0" />
    <rect
       id="rect4669"
       y="-22.753868"
       x="-154.31055"
       width="1.0000006"
       height="1.0000006"
       class="ColorScheme-Text"
       style="fill:url(#linearGradient2893);fill-opacity:1;fill-rule:evenodd;stroke-width:0.08333339"
       transform="scale(-1)" />
  </g>
  <g
     style="fill:#000000;fill-opacity:0.14173229"
     transform="matrix(1,0,0,-1,-22.846025,55.937825)"
     id="hover-bottomright">
    <path
       inkscape:connector-curvature="0"
       style="fill:none;fill-opacity:0.14173229;fill-rule:evenodd;stroke-width:0.33333355"
       d="m 153.31055,18.753906 v 3 h 1 v 1 h 3 v -4 z"
       transform="translate(0,-3.7758427e-5)"
       id="path4673" />
    <rect
       transform="scale(-1)"
       class="ColorScheme-Text"
       style="fill:url(#linearGradient2889);fill-opacity:1;fill-rule:evenodd;stroke-width:0.08333339"
       height="1.0000006"
       width="1.0000006"
       x="-154.31055"
       y="-22.753868"
       id="rect4675" />
  </g>
  <g
     id="normal-bottom">
    <rect
       id="rect921"
       class="ColorScheme-ViewFocus"
       y="7.0000038"
       x="-33"
       width="2.0000012"
       height="24.000013"
       style="fill:url(#linearGradient996);fill-opacity:1;fill-rule:evenodd;stroke-width:0.57735062"
       transform="rotate(-90)" />
    <rect
       transform="rotate(-90)"
       style="fill:url(#linearGradient932);fill-opacity:1.0;fill-rule:evenodd;stroke-width:0.40824854"
       height="24.000013"
       width="1.0000006"
       x="-33"
       y="7.0000038"
       class="ColorScheme-ViewFocus"
       id="rect915" />
  </g>
  <g
     id="normal-top">
    <rect
       transform="rotate(-90)"
       style="fill:url(#linearGradient988);fill-opacity:1;fill-rule:evenodd;stroke-width:0.57735062"
       class="ColorScheme-ViewFocus"
       height="24.000013"
       width="2.0000012"
       x="-6.9999852"
       y="7.0000095"
       id="rect929" />
    <rect
       id="rect923"
       y="7.0000029"
       x="-5.999989"
       width="1.0000006"
       height="24.000013"
       class="ColorScheme-ViewFocus"
       style="fill:url(#linearGradient927);fill-opacity:1.0;fill-rule:evenodd;stroke-width:0.40824854"
       transform="rotate(-90)" />
  </g>
  <g
     transform="rotate(-90,19.00001,18.999991)"
     id="normal-right">
    <rect
       transform="rotate(-90)"
       style="fill:url(#linearGradient899);fill-opacity:1.0;fill-rule:evenodd;stroke-width:0.57735062"
       height="24.000013"
       width="2.0000012"
       x="-33"
       y="7.0000038"
       class="ColorScheme-ViewFocus"
       id="rect931" />
    <rect
       id="rect933"
       class="ColorScheme-ViewFocus"
       y="7.0000038"
       x="-33"
       width="1.0000006"
       height="24.000013"
       style="fill:url(#linearGradient921);fill-opacity:1;fill-rule:evenodd;stroke-width:0.40824854"
       transform="rotate(-90)" />
  </g>
  <g
     transform="translate(-4.919903,-1.9491967)"
     id="normal-bottomright">
    <path
       inkscape:connector-curvature="0"
       style="opacity:1;fill:#d8d8d8;fill-opacity:1;fill-rule:nonzero;stroke:none;stroke-width:5.86868668;stroke-linecap:round;stroke-miterlimit:4;stroke-dasharray:none;stroke-dashoffset:0;stroke-opacity:0.82352941"
       d="m 36.919922,32.949219 v 1 h -1 v 1 h 0.972656 c 0.569193,0 1.027344,-0.458151 1.027344,-1.027344 v -0.972656 z"
       transform="translate(0,-2.5122419e-5)"
       id="path946" />
    <rect
       id="rect939"
       y="-33.949192"
       x="-36.919922"
       width="1.0000006"
       height="1.0000006"
       class="ColorScheme-ViewFocus"
       style="fill:url(#linearGradient935);fill-opacity:1.0;fill-rule:evenodd;stroke-width:0.08333339"
       transform="scale(-1)" />
  </g>
  <g
     transform="rotate(-90,19.000015,18.999997)"
     id="normal-left">
    <rect
       id="rect948"
       y="7.0000095"
       x="-6.9999852"
       width="2.0000012"
       height="24.000013"
       class="ColorScheme-ViewFocus"
       style="fill:url(#linearGradient911);fill-opacity:1.0;fill-rule:evenodd;stroke-width:0.57735062"
       transform="rotate(-90)" />
    <rect
       transform="rotate(-90)"
       style="fill:url(#linearGradient930);fill-opacity:1.0;fill-rule:evenodd;stroke-width:0.40824854"
       class="ColorScheme-ViewFocus"
       height="24.000013"
       width="1.0000006"
       x="-5.999989"
       y="7.0000029"
       id="rect950" />
  </g>
  <g
     transform="translate(8.8183622,-1.583971)"
     id="normal-topleft">
    <path
       inkscape:connector-curvature="0"
       style="opacity:1;fill:url(#linearGradient958);fill-opacity:1.0;fill-rule:nonzero;stroke:none;stroke-width:5.86868668;stroke-linecap:round;stroke-miterlimit:4;stroke-dasharray:none;stroke-dashoffset:0;stroke-opacity:0.82352941"
       d="m -2.7910156,6.5839844 c -0.5691924,0 -1.0273438,0.4581514 -1.0273438,1.0273437 v 0.9726563 h 1 v -1 h 1 v -1 z"
       transform="translate(0,-2.5122419e-5)"
       id="path963" />
    <rect
       id="rect956"
       y="-8.5839605"
       x="1.8183594"
       width="1.0000006"
       height="1.0000006"
       class="ColorScheme-ViewFocus"
       style="fill:url(#linearGradient923);fill-opacity:1.0;fill-rule:evenodd;stroke-width:0.08333339"
       transform="scale(-1)" />
  </g>
  <g
     transform="translate(-6.601544,5.5586033)"
     id="normal-topright">
    <path
       inkscape:connector-curvature="0"
       style="opacity:1;fill:url(#linearGradient950);fill-opacity:1.0;fill-rule:nonzero;stroke:none;stroke-width:5.86868668;stroke-linecap:round;stroke-miterlimit:4;stroke-dasharray:none;stroke-dashoffset:0;stroke-opacity:0.82352941"
       d="m 37.587891,-0.57226562 v 1 h 1.013671 l 0.689454,-0.68945313 C 39.104783,-0.45180964 38.84895,-0.57226562 38.560547,-0.57226562 Z"
       id="path971"
       transform="translate(0,-2.5122419e-5)" />
    <path
       id="path986"
       d="m 39.601563,1.4413806 -1,-1e-7 -10e-7,-1.01367124 0.689453,-0.68945427 c 0.190092,0.18623354 0.310547,0.44206619 0.310547,0.73046942 z"
       style="opacity:1;fill:url(#linearGradient952);fill-opacity:1.0;fill-rule:nonzero;stroke:none;stroke-width:5.86868668;stroke-linecap:round;stroke-miterlimit:4;stroke-dasharray:none;stroke-dashoffset:0;stroke-opacity:0.82352941"
       inkscape:connector-curvature="0" />
    <rect
       transform="scale(-1)"
       style="fill:url(#linearGradient941);fill-opacity:1.0;fill-rule:evenodd;stroke-width:0.08333339"
       class="ColorScheme-ViewFocus"
       height="1.0000006"
       width="1.0000006"
       x="-38.601562"
       y="-1.4277092"
       id="rect988" />
  </g>
  <g
     transform="rotate(-180,23.919701,16.189499)"
     id="normal-bottomleft">
    <path
       id="path990"
       d="m 40.839399,-0.62100247 v 1 h 1.013671 l 0.689454,-0.68945313 c -0.186233,-0.19009089 -0.442066,-0.31054687 -0.730469,-0.31054687 z"
       style="opacity:1;fill:#d8d8d8;fill-opacity:1;fill-rule:nonzero;stroke:none;stroke-width:5.86868668;stroke-linecap:round;stroke-miterlimit:4;stroke-dasharray:none;stroke-dashoffset:0;stroke-opacity:0.82352941"
       inkscape:connector-curvature="0" />
    <path
       inkscape:connector-curvature="0"
       style="opacity:1;fill:url(#linearGradient964);fill-opacity:1.0;fill-rule:nonzero;stroke:none;stroke-width:5.86868668;stroke-linecap:round;stroke-miterlimit:4;stroke-dasharray:none;stroke-dashoffset:0;stroke-opacity:0.82352941"
       d="m 42.853071,1.3926689 -1,-1e-7 -10e-7,-1.01367126 0.689453,-0.68945427 c 0.190092,0.18623354 0.310547,0.44206619 0.310547,0.73046942 z"
       id="path992" />
    <rect
       id="rect994"
       y="-1.3789974"
       x="-41.853069"
       width="1.0000006"
       height="1.0000006"
       class="ColorScheme-ViewFocus"
       style="fill:url(#linearGradient929);fill-opacity:1.0;fill-rule:evenodd;stroke-width:0.08333339"
       transform="scale(-1)" />
  </g>
  <rect
     id="pressed-center"
     y="7.9990859"
     x="-82.854126"
     width="24.000013"
     height="24.000013"
     class="ColorScheme-ViewFocus"
     style="fill:url(#linearGradient1537);fill-opacity:1;fill-rule:evenodd;stroke-width:2.00000119"
     transform="scale(-1,1)" />
  <g
     transform="matrix(1,0,0,-1,51.854108,38.999089)"
     id="pressed-top">
    <rect
       transform="rotate(-90)"
       style="fill:url(#linearGradient1539);fill-opacity:1.0;fill-rule:evenodd;stroke-width:0.57735062"
       height="24.000013"
       width="2.0000012"
       x="-33"
       y="7.0000038"
       class="ColorScheme-ViewFocus"
       id="rect1019" />
    <rect
       id="rect1021"
       class="ColorScheme-ViewFocus"
       y="7.0000038"
       x="-33"
       width="1.0000006"
       height="24.000013"
       style="fill:url(#linearGradient1523);fill-opacity:1.0;fill-rule:evenodd;stroke-width:0.40824854"
       transform="rotate(-90)" />
  </g>
  <g
     transform="matrix(1,0,0,-1,51.854108,38.999089)"
     id="pressed-bottom">
    <rect
       id="rect1025"
       y="7.0000095"
       x="-6.9999852"
       width="2.0000012"
       height="24.000013"
       class="ColorScheme-ViewFocus"
       style="fill:url(#linearGradient1077);fill-opacity:1.0;fill-rule:evenodd;stroke-width:0.57735062"
       transform="rotate(-90)" />
    <rect
       transform="rotate(-90)"
       style="fill:url(#linearGradient1513);fill-opacity:1.0;fill-rule:evenodd;stroke-width:0.40824854"
       class="ColorScheme-ViewFocus"
       height="24.000013"
       width="1.0000006"
       x="-5.999989"
       y="7.0000029"
       id="rect1027" />
  </g>
  <g
     id="pressed-right"
     transform="matrix(0,1,1,0,51.854127,0.9990881)">
    <rect
       id="rect1031"
       class="ColorScheme-ViewFocus"
       y="7.0000038"
       x="-33"
       width="2.0000012"
       height="24.000013"
       style="fill:url(#linearGradient1481);fill-opacity:1.0;fill-rule:evenodd;stroke-width:0.57735062"
       transform="rotate(-90)" />
    <rect
       transform="rotate(-90)"
       style="fill:url(#linearGradient1503);fill-opacity:1;fill-rule:evenodd;stroke-width:0.40824854"
       height="24.000013"
       width="1.0000006"
       x="-33"
       y="7.0000038"
       class="ColorScheme-ViewFocus"
       id="rect1033" />
  </g>
  <g
     id="pressed-topright"
     transform="matrix(1,0,0,-1,46.934205,40.948286)">
    <path
       id="path1037"
       transform="translate(0,-2.5122419e-5)"
       d="m 36.919922,32.949219 v 1 h -1 v 1 h 0.972656 c 0.569193,0 1.027344,-0.458151 1.027344,-1.027344 v -0.972656 z"
       style="opacity:1;fill:url(#linearGradient1525);fill-opacity:1.0;fill-rule:nonzero;stroke:none;stroke-width:5.86868668;stroke-linecap:round;stroke-miterlimit:4;stroke-dasharray:none;stroke-dashoffset:0;stroke-opacity:0.82352941"
       inkscape:connector-curvature="0" />
    <rect
       transform="scale(-1)"
       style="fill:url(#linearGradient1489);fill-opacity:1.0;fill-rule:evenodd;stroke-width:0.08333339"
       class="ColorScheme-ViewFocus"
       height="1.0000006"
       width="1.0000006"
       x="-36.919922"
       y="-33.949192"
       id="rect1039" />
  </g>
  <g
     id="pressed-left"
     transform="matrix(0,1,1,0,51.854126,0.9990771)">
    <rect
       transform="rotate(-90)"
       style="fill:url(#linearGradient1457);fill-opacity:1.0;fill-rule:evenodd;stroke-width:0.57735062"
       class="ColorScheme-ViewFocus"
       height="24.000013"
       width="2.0000012"
       x="-6.9999852"
       y="7.0000095"
       id="rect1043" />
    <rect
       id="rect1045"
       y="7.0000029"
       x="-5.999989"
       width="1.0000006"
       height="24.000013"
       class="ColorScheme-ViewFocus"
       style="fill:url(#linearGradient1517);fill-opacity:1.0;fill-rule:evenodd;stroke-width:0.40824854"
       transform="rotate(-90)" />
  </g>
  <g
     id="pressed-bottomleft"
     transform="matrix(1,0,0,-1,60.67247,40.58306)">
    <path
       id="path1049"
       transform="translate(0,-2.5122419e-5)"
       d="m -2.7910156,6.5839844 c -0.5691924,0 -1.0273438,0.4581514 -1.0273438,1.0273437 v 0.9726563 h 1 v -1 h 1 v -1 z"
       style="opacity:1;fill:url(#linearGradient1515);fill-opacity:1.0;fill-rule:nonzero;stroke:none;stroke-width:5.86868668;stroke-linecap:round;stroke-miterlimit:4;stroke-dasharray:none;stroke-dashoffset:0;stroke-opacity:0.82352941"
       inkscape:connector-curvature="0" />
    <rect
       transform="scale(-1)"
       style="fill:url(#linearGradient1473);fill-opacity:1.0;fill-rule:evenodd;stroke-width:0.08333339"
       class="ColorScheme-ViewFocus"
       height="1.0000006"
       width="1.0000006"
       x="1.8183594"
       y="-8.5839605"
       id="rect1051" />
  </g>
  <g
     id="pressed-bottomright"
     transform="matrix(1,0,0,-1,45.252564,33.440486)">
    <path
       transform="translate(0,-2.5122419e-5)"
       id="path1055"
       d="m 37.587891,-0.57226562 v 1 h 1.013671 l 0.689454,-0.68945313 C 39.104783,-0.45180964 38.84895,-0.57226562 38.560547,-0.57226562 Z"
       style="opacity:1;fill:url(#linearGradient1509);fill-opacity:1.0;fill-rule:nonzero;stroke:none;stroke-width:5.86868668;stroke-linecap:round;stroke-miterlimit:4;stroke-dasharray:none;stroke-dashoffset:0;stroke-opacity:0.82352941"
       inkscape:connector-curvature="0" />
    <path
       inkscape:connector-curvature="0"
       style="opacity:1;fill:url(#linearGradient1511);fill-opacity:1.0;fill-rule:nonzero;stroke:none;stroke-width:5.86868668;stroke-linecap:round;stroke-miterlimit:4;stroke-dasharray:none;stroke-dashoffset:0;stroke-opacity:0.82352941"
       d="m 39.601563,1.4413806 -1,-1e-7 -10e-7,-1.01367124 0.689453,-0.68945427 c 0.190092,0.18623354 0.310547,0.44206619 0.310547,0.73046942 z"
       id="path1057" />
    <rect
       id="rect1059"
       y="-1.4277092"
       x="-38.601562"
       width="1.0000006"
       height="1.0000006"
       class="ColorScheme-ViewFocus"
       style="fill:url(#linearGradient1497);fill-opacity:1.0;fill-rule:evenodd;stroke-width:0.08333339"
       transform="scale(-1)" />
  </g>
  <g
     id="pressed-topleft"
     transform="matrix(-1,0,0,1,99.69351,6.620091)">
    <path
       inkscape:connector-curvature="0"
       style="opacity:1;fill:url(#linearGradient1519);fill-opacity:1.0;fill-rule:nonzero;stroke:none;stroke-width:5.86868668;stroke-linecap:round;stroke-miterlimit:4;stroke-dasharray:none;stroke-dashoffset:0;stroke-opacity:0.82352941"
       d="m 40.839399,-0.62100247 v 1 h 1.013671 l 0.689454,-0.68945313 c -0.186233,-0.19009089 -0.442066,-0.31054687 -0.730469,-0.31054687 z"
       id="path1063" />
    <path
       id="path1065"
       d="m 42.853071,1.3926689 -1,-1e-7 -10e-7,-1.01367126 0.689453,-0.68945427 c 0.190092,0.18623354 0.310547,0.44206619 0.310547,0.73046942 z"
       style="opacity:1;fill:url(#linearGradient1521);fill-opacity:1.0;fill-rule:nonzero;stroke:none;stroke-width:5.86868668;stroke-linecap:round;stroke-miterlimit:4;stroke-dasharray:none;stroke-dashoffset:0;stroke-opacity:0.82352941"
       inkscape:connector-curvature="0" />
    <rect
       transform="scale(-1)"
       style="fill:url(#linearGradient1465);fill-opacity:1.0;fill-rule:evenodd;stroke-width:0.08333339"
       class="ColorScheme-ViewFocus"
       height="1.0000006"
       width="1.0000006"
       x="-41.853069"
       y="-1.3789974"
       id="rect1067" />
  </g>
</svg>
